<?xml version="1.0" encoding="UTF-8" standalone="no"?>
<!-- Created with Inkscape (http://www.inkscape.org/) -->

<svg
   version="1.1"
   id="svg2"
   width="173.12411"
   height="98.882164"
   viewBox="0 0 173.12412 98.882163"
   sodipodi:docname="peegy.svg"
   inkscape:version="1.2.2 (b0a8486541, 2022-12-01)"
   inkscape:export-filename="peegy.png"
   inkscape:export-xdpi="110.90309"
   inkscape:export-ydpi="110.90309"
   xmlns:inkscape="http://www.inkscape.org/namespaces/inkscape"
   xmlns:sodipodi="http://sodipodi.sourceforge.net/DTD/sodipodi-0.dtd"
   xmlns:xlink="http://www.w3.org/1999/xlink"
   xmlns="http://www.w3.org/2000/svg"
   xmlns:svg="http://www.w3.org/2000/svg"
   xmlns:rdf="http://www.w3.org/1999/02/22-rdf-syntax-ns#"
   xmlns:cc="http://creativecommons.org/ns#"
   xmlns:dc="http://purl.org/dc/elements/1.1/">
  <metadata
     id="metadata8">
    <rdf:RDF>
      <cc:Work
         rdf:about="">
        <dc:format>image/svg+xml</dc:format>
        <dc:type
           rdf:resource="http://purl.org/dc/dcmitype/StillImage" />
        <dc:title />
      </cc:Work>
    </rdf:RDF>
  </metadata>
  <defs
     id="defs6">
    <linearGradient
       inkscape:collect="always"
       id="linearGradient5320">
      <stop
         style="stop-color:#ff001f;stop-opacity:1;"
         offset="0"
         id="stop5316" />
      <stop
         style="stop-color:#ff001f;stop-opacity:0;"
         offset="1"
         id="stop5318" />
    </linearGradient>
    <linearGradient
       inkscape:collect="always"
       id="linearGradient5312">
      <stop
         style="stop-color:#111b1b;stop-opacity:1;"
         offset="0"
         id="stop5308" />
      <stop
         style="stop-color:#111b1b;stop-opacity:0;"
         offset="1"
         id="stop5310" />
    </linearGradient>
    <linearGradient
       inkscape:collect="always"
       id="linearGradient5304">
      <stop
         style="stop-color:#280081;stop-opacity:1;"
         offset="0"
         id="stop5300" />
      <stop
         style="stop-color:#280081;stop-opacity:0;"
         offset="1"
         id="stop5302" />
    </linearGradient>
    <linearGradient
       inkscape:collect="always"
       id="linearGradient5296">
      <stop
         style="stop-color:#3b00ff;stop-opacity:1;"
         offset="0"
         id="stop5292" />
      <stop
         style="stop-color:#3b00ff;stop-opacity:0;"
         offset="1"
         id="stop5294" />
    </linearGradient>
    <linearGradient
       inkscape:collect="always"
       id="linearGradient5288">
      <stop
         style="stop-color:#2ced30;stop-opacity:1;"
         offset="0"
         id="stop5284" />
      <stop
         style="stop-color:#2ced30;stop-opacity:0;"
         offset="1"
         id="stop5286" />
    </linearGradient>
    <linearGradient
       inkscape:collect="always"
       id="linearGradient5280">
      <stop
         style="stop-color:#4d8641;stop-opacity:1;"
         offset="0"
         id="stop5276" />
      <stop
         style="stop-color:#4d8641;stop-opacity:0;"
         offset="1"
         id="stop5278" />
    </linearGradient>
    <linearGradient
       inkscape:collect="always"
       id="linearGradient2083">
      <stop
         style="stop-color:#fff6ff;stop-opacity:1;"
         offset="0"
         id="stop2079" />
      <stop
         style="stop-color:#fff6ff;stop-opacity:0;"
         offset="1"
         id="stop2081" />
    </linearGradient>
    <linearGradient
       inkscape:collect="always"
       id="linearGradient2075">
      <stop
         style="stop-color:#ffffff;stop-opacity:1;"
         offset="0"
         id="stop2071" />
      <stop
         style="stop-color:#ffffff;stop-opacity:0;"
         offset="1"
         id="stop2073" />
    </linearGradient>
    <linearGradient
       inkscape:collect="always"
       xlink:href="#linearGradient2075"
       id="linearGradient2077"
       x1="164.33511"
       y1="45.430954"
       x2="183.26212"
       y2="45.430954"
       gradientUnits="userSpaceOnUse"
       gradientTransform="translate(-141.11283,10.306068)" />
    <linearGradient
       inkscape:collect="always"
       xlink:href="#linearGradient2083"
       id="linearGradient2085"
       x1="199.55247"
       y1="45.064762"
       x2="218.47948"
       y2="45.064762"
       gradientUnits="userSpaceOnUse"
       gradientTransform="translate(-141.11283,10.306068)" />
    <filter
       inkscape:collect="always"
       style="color-interpolation-filters:sRGB"
       id="filter2315"
       x="-0.046290642"
       width="1.0925813"
       y="-0.042401749"
       height="1.0848035">
      <feGaussianBlur
         inkscape:collect="always"
         stdDeviation="0.097782546"
         id="feGaussianBlur2317" />
    </filter>
    <filter
       inkscape:collect="always"
       style="color-interpolation-filters:sRGB"
       id="filter3191"
       x="-0.042620137"
       width="1.0852403"
       y="-0.041354232"
       height="1.0827085">
      <feGaussianBlur
         inkscape:collect="always"
         stdDeviation="0.24285565"
         id="feGaussianBlur3193" />
    </filter>
    <filter
       inkscape:collect="always"
       style="color-interpolation-filters:sRGB"
       id="filter3379"
       x="-0.036528303"
       width="1.0730566"
       y="-0.035443338"
       height="1.0708867">
      <feGaussianBlur
         inkscape:collect="always"
         stdDeviation="0.19788238"
         id="feGaussianBlur3381" />
    </filter>
    <filter
       inkscape:collect="always"
       style="color-interpolation-filters:sRGB"
       id="filter3847"
       x="-0.035940791"
       width="1.0719517"
       y="-0.065180617"
       height="1.1310098">
      <feGaussianBlur
         inkscape:collect="always"
         stdDeviation="0.16330417"
         id="feGaussianBlur3849" />
    </filter>
    <filter
       inkscape:collect="always"
       style="color-interpolation-filters:sRGB"
       id="filter3859"
       x="-0.10876891"
       width="1.2175378"
       y="-0.077828684"
       height="1.1556574">
      <feGaussianBlur
         inkscape:collect="always"
         stdDeviation="0.13040414"
         id="feGaussianBlur3861" />
    </filter>
    <filter
       inkscape:collect="always"
       style="color-interpolation-filters:sRGB"
       id="filter3995"
       x="-0.12688549"
       width="1.253771"
       y="-0.087409998"
       height="1.17482">
      <feGaussianBlur
         inkscape:collect="always"
         stdDeviation="0.15972881"
         id="feGaussianBlur3997" />
    </filter>
    <linearGradient
       inkscape:collect="always"
       xlink:href="#linearGradient5280"
       id="linearGradient5282"
       x1="107.6339"
       y1="46.505341"
       x2="243.47098"
       y2="46.505341"
       gradientUnits="userSpaceOnUse"
       gradientTransform="matrix(-0.68378489,0,0,0.68378489,246.72254,10.228169)" />
    <linearGradient
       inkscape:collect="always"
       xlink:href="#linearGradient5288"
       id="linearGradient5290"
       x1="107.6339"
       y1="53.832005"
       x2="243.47099"
       y2="53.832005"
       gradientUnits="userSpaceOnUse"
       gradientTransform="matrix(-0.68378489,0,0,0.68378489,246.72254,10.228169)" />
    <linearGradient
       inkscape:collect="always"
       xlink:href="#linearGradient5296"
       id="linearGradient5298"
       x1="107.6339"
       y1="61.158669"
       x2="243.47098"
       y2="61.158669"
       gradientUnits="userSpaceOnUse"
       gradientTransform="matrix(-0.68378489,0,0,0.68378489,246.72254,10.228169)" />
    <linearGradient
       inkscape:collect="always"
       xlink:href="#linearGradient5304"
       id="linearGradient5306"
       x1="107.6339"
       y1="68.485336"
       x2="243.47098"
       y2="68.485336"
       gradientUnits="userSpaceOnUse"
       gradientTransform="matrix(-0.68378489,0,0,0.68378489,246.72254,10.228169)" />
    <linearGradient
       inkscape:collect="always"
       xlink:href="#linearGradient5312"
       id="linearGradient5314"
       x1="107.6339"
       y1="75.812004"
       x2="243.47098"
       y2="75.812004"
       gradientUnits="userSpaceOnUse"
       gradientTransform="matrix(-0.68378489,0,0,0.68378489,246.72254,10.228169)" />
    <linearGradient
       inkscape:collect="always"
       xlink:href="#linearGradient5320"
       id="linearGradient5322"
       x1="107.6339"
       y1="39.178669"
       x2="243.47098"
       y2="39.178669"
       gradientUnits="userSpaceOnUse"
       gradientTransform="matrix(-0.68378489,0,0,0.68378489,246.72254,10.228169)" />
  </defs>
  <sodipodi:namedview
     pagecolor="#ffffff"
     bordercolor="#666666"
     borderopacity="1"
     objecttolerance="10"
     gridtolerance="10"
     guidetolerance="10"
     inkscape:pageopacity="0"
     inkscape:pageshadow="2"
     inkscape:window-width="2490"
     inkscape:window-height="1371"
     id="namedview4"
     showgrid="false"
     inkscape:zoom="3.6875001"
     inkscape:cx="-88.677964"
     inkscape:cy="77.55932"
     inkscape:window-x="1510"
     inkscape:window-y="1152"
     inkscape:window-maximized="1"
     inkscape:current-layer="svg2"
     fit-margin-top="0"
     fit-margin-left="0"
     fit-margin-right="0"
     fit-margin-bottom="0"
     inkscape:showpageshadow="2"
     inkscape:pagecheckerboard="0"
     inkscape:deskcolor="#d1d1d1" />
  <g
     id="g262">
    <path
       style="fill:#f7b8d3;fill-opacity:1;stroke:#000000;stroke-width:1px;stroke-linecap:butt;stroke-linejoin:miter;stroke-opacity:1"
       d="m 2.938353,71.58757 c -0.11323,-5.295996 0.80682,-10.642057 2.30109,-15.724138 1.30721,-4.445842 3.17925,-8.802256 5.75274,-12.656012 4.37006,-6.544084 9.7411,-12.633324 16.10765,-17.2582 3.42411,-2.487385 7.45424,-4.144824 11.50547,-5.369217 8.48144,-2.537351 17.09306,-1.654454 24.16148,2.684608 4.83305,3.024433 9.64049,7.145687 13.46957,11.369874 4.60198,5.076842 8.56044,10.417795 11.45894,16.626761 2.33468,5.001202 3.57181,11.214769 3.83515,16.107653 0.53836,10.235222 -1.70886,18.660776 -10.68327,24.254535 -13.79133,7.610406 -31.78296,7.518198 -46.49036,5.812148 -6.4249,-0.81065 -13.03386,-1.480808 -18.76245,-3.987626 C 5.561583,89.330252 3.146443,81.132453 2.938353,71.58757 Z"
       id="path819-7"
       inkscape:connector-curvature="0"
       sodipodi:nodetypes="csssccssccccc" />
    <ellipse
       style="fill:url(#linearGradient2085);fill-opacity:1;stroke:#ffd8ff;stroke-width:0.34459031;stroke-miterlimit:4;stroke-dasharray:none;stroke-opacity:1;filter:url(#filter3379)"
       id="path823-3-6"
       cx="67.903152"
       cy="55.370831"
       rx="8.8590603"
       ry="9.1302471" />
    <ellipse
       style="fill:url(#linearGradient2077);fill-opacity:1;stroke:#ffe2ff;stroke-width:0.34459031;stroke-miterlimit:4;stroke-dasharray:none;stroke-opacity:1;filter:url(#filter3191)"
       id="path823-3"
       cx="32.685787"
       cy="55.737022"
       rx="8.8590603"
       ry="9.1302471" />
    <path
       style="opacity:1;fill:#f75bc3;fill-opacity:1;stroke:#000000;stroke-width:1px;stroke-linecap:butt;stroke-linejoin:miter;stroke-opacity:1;filter:url(#filter3847)"
       d="m 37.646513,81.750732 c 0.92736,-1.218787 1.98632,-1.086713 3.44819,-1.273438 2.47146,-0.315683 5.7382,-0.295419 8.87455,-0.178736 1.48556,0.05527 3.01475,0.03172 4.46467,0.04479 1.40309,0.01265 2.73195,0.05958 3.87516,0.245407 1.34207,0.218147 2.36439,0.37202 3.11539,1.545489 1.61977,2.530946 -1.61141,6.031904 -3.6434,8.245584 -1.52819,1.664845 -3.32385,2.555203 -5.51303,3.116064 -2.35294,0.602814 -5.44386,0.539433 -7.23886,-0.09588 -2.30239,-0.814898 -4.73684,-2.958689 -5.94449,-5.081581 -1.1201,-1.969001 -2.8099,-4.764929 -1.43818,-6.567703 z"
       id="path878-9"
       inkscape:connector-curvature="0"
       sodipodi:nodetypes="sssssssssss" />
    <g
       id="g883">
      <ellipse
         ry="3.0405357"
         rx="2.1756299"
         cy="71.933182"
         cx="45.886684"
         id="path932"
         style="fill:#000040;fill-opacity:0.07211537;stroke:#ff73ff;stroke-width:0.32062367;stroke-miterlimit:4;stroke-dasharray:none;stroke-opacity:1;filter:url(#filter3859)" />
      <ellipse
         ry="3.0508475"
         rx="2.1016948"
         cy="72.035881"
         cx="55.056667"
         id="path934"
         style="fill:#000040;fill-opacity:0.07211537;stroke:#ff68ff;stroke-width:0.30000001;stroke-miterlimit:4;stroke-dasharray:none;stroke-opacity:1;filter:url(#filter3995)" />
    </g>
    <ellipse
       style="fill:#000000;fill-opacity:1;stroke:#ffffff;stroke-width:0.44179055;stroke-miterlimit:4;stroke-dasharray:none;stroke-opacity:1"
       id="path938"
       cx="67.431549"
       cy="55.413082"
       rx="4.9207935"
       ry="5.3721061" />
    <ellipse
       style="fill:#ffffff;fill-opacity:1;stroke:#ffffff;stroke-width:0.16334102;stroke-miterlimit:4;stroke-dasharray:none;stroke-opacity:1"
       id="path938-0"
       cx="66.36908"
       cy="53.222656"
       rx="1.8001362"
       ry="2.007391" />
    <ellipse
       style="fill:#000000;fill-opacity:1;stroke:#ffffff;stroke-width:0.44179055;stroke-miterlimit:4;stroke-dasharray:none;stroke-opacity:1;filter:url(#filter2315)"
       id="path938-9"
       cx="33.386745"
       cy="55.850227"
       rx="4.9207935"
       ry="5.3721061"
       inkscape:transform-center-x="2.3010933"
       inkscape:transform-center-y="-2.6846088" />
    <ellipse
       style="fill:#ffffff;fill-opacity:1;stroke:#ffffff;stroke-width:0.16334102;stroke-miterlimit:4;stroke-dasharray:none;stroke-opacity:1"
       id="path938-0-3"
       cx="34.050091"
       cy="54.618591"
       rx="1.8001362"
       ry="2.007391"
       inkscape:transform-center-x="3.3635627"
       inkscape:transform-center-y="-4.8750347" />
    <path
       style="fill:#f7b8d3;fill-opacity:1;stroke:#000000;stroke-width:1px;stroke-linecap:butt;stroke-linejoin:miter;stroke-opacity:1"
       d="m 75.730663,42.950505 c -2.34069,-0.0071 -4.75273,-0.32459 -6.91525,-1.220338 -1.52914,-0.633389 -3.1401,-1.476756 -4.0678,-2.847458 -1.22284,-1.806785 -1.36938,-4.194605 -1.49152,-6.372881 -0.19366,-3.453605 -0.46104,-6.143127 0.40678,-9.491526 0.478,-1.84435 1.6016,-4.789544 2.98305,-6.101694 1.28519,-1.220725 3.27287,-2.079058 5.01695,-1.762712 2.84134,0.515372 5.10418,3.422966 7.18644,5.423728 1.89196,1.817918 3.16608,3.871116 4.74576,5.966102 0.92879,1.231768 1.83166,2.51481 2.44068,3.932203 0.77468,1.802947 1.52282,3.732833 1.49152,5.694915 -0.0203,1.272618 -1.06841,2.831596 -1.8983,3.79661 -1.04152,1.211095 -2.00107,1.420972 -3.52543,1.898306 -2.05638,0.643934 -4.21804,1.091291 -6.37288,1.084745 z"
       id="path821-5-2"
       inkscape:connector-curvature="0"
       sodipodi:nodetypes="ssssssssssssss" />
    <path
       style="fill:#f7b8d3;fill-opacity:1;stroke:#000000;stroke-width:1px;stroke-linecap:butt;stroke-linejoin:miter;stroke-opacity:1"
       d="m 25.966703,26.24267 c 0.92142,-2.071425 0.45308,-4.58752 -0.0361,-6.801225 -0.646,-2.923473 -1.94212,-5.772616 -3.74139,-8.165645 -2.33056,-3.0996478 -4.79628,-5.5933477 -7.98359,-7.8025245 -1.7853,-1.3796462 -4.40793,-2.69782536 -6.57912,-2.93869246 -1.2934,-0.1435003 -2.81629,0.1749653 -3.7518,1.07958176 -1.37121,1.3259254 -2.09638,3.3987658 -2.5673,5.2471435 -0.50524996,1.983066 -0.77529996,4.6996687 -0.80725996,6.1943787 0.0337,1.259245 0.25492,6.973738 1.07304996,10.277914 0.60249,2.433264 1.62499,5.035641 3.29138,6.908308 2.75785,3.09922 6.80949,6.87061 10.90831,6.229948 1.66365,-1.255845 3.95339,-3.542847 6.03858,-5.540549 1.31564,-1.260436 3.41472,-3.023928 4.15521,-4.688638 z"
       id="path855-6-6"
       inkscape:connector-curvature="0"
       sodipodi:nodetypes="cccccccccccccc" />
    <g
       id="g5451">
      <path
         d="m 173.12411,31.004733 c -0.15035,0 -0.3007,0.0078 -0.4509,0.02485 -0.15034,0.01709 -0.3007,0.04194 -0.4509,0.07611 -0.15034,0.03261 -0.3007,0.07456 -0.45089,0.124256 -0.15035,0.0497 -0.30055,0.107172 -0.4509,0.172407 -0.15035,0.06679 -0.30054,0.139789 -0.4509,0.220556 -0.15035,0.08077 -0.30054,0.169301 -0.4509,0.265599 -0.15034,0.09475 -0.30132,0.198811 -0.45043,0.307536 -0.15066,0.110279 -0.30132,0.22677 -0.45198,0.349474 -0.14911,0.122703 -0.29977,0.250066 -0.45044,0.385196 -0.15066,0.13513 -0.29976,0.274918 -0.45043,0.420921 -0.15065,0.144448 -0.30132,0.29511 -0.45042,0.450431 -0.15067,0.155322 -0.30133,0.313749 -0.45199,0.476837 -0.15066,0.16464 -0.29977,0.330834 -0.45044,0.501687 -0.15065,0.1693 -0.30131,0.34326 -0.45042,0.518773 -0.15067,0.175513 -0.30133,0.354132 -0.45199,0.534305 -0.14911,0.178619 -0.29977,0.360345 -0.45043,0.543624 -0.15066,0.181726 -0.29977,0.365005 -0.45043,0.548284 -0.15066,0.18328 -0.30132,0.366559 -0.45199,0.549837 -0.14911,0.18328 -0.29977,0.365006 -0.45043,0.546731 -0.15065,0.180172 -0.29977,0.360346 -0.45042,0.537412 -0.15067,0.177066 -0.30133,0.352579 -0.45044,0.523432 -0.15066,0.172406 -0.30133,0.341707 -0.45199,0.507901 -0.14911,0.166194 -0.29976,0.327728 -0.45042,0.486155 -0.15067,0.158428 -0.30133,0.310643 -0.45044,0.459751 -0.15066,0.149108 -0.30133,0.292004 -0.45199,0.431793 -0.1491,0.138237 -0.29976,0.270259 -0.45042,0.397622 -0.15067,0.125811 -0.29977,0.246961 -0.45044,0.360345 -0.15066,0.114939 -0.30133,0.22211 -0.45043,0.321516 -0.15066,0.100958 -0.30132,0.194151 -0.45198,0.281132 -0.15067,0.08543 -0.29977,0.16464 -0.45044,0.234534 -0.15066,0.07145 -0.30133,0.133576 -0.45043,0.189492 -0.15066,0.05436 -0.30132,0.102512 -0.45198,0.141343 -0.14911,0.03883 -0.29977,0.06834 -0.45044,0.09164 -0.15066,0.02174 -0.29976,0.03572 -0.45043,0.04193 -0.15066,0.0047 -0.30132,0.003 -0.45197,-0.0093 -0.14912,-0.01087 -0.29978,-0.02951 -0.45044,-0.05747 -0.15066,-0.02796 -0.29978,-0.06523 -0.45044,-0.108725 -0.15066,-0.04504 -0.30131,-0.0963 -0.45042,-0.156874 -0.15067,-0.06058 -0.30133,-0.128917 -0.45199,-0.205024 -0.14911,-0.07611 -0.29978,-0.159982 -0.45043,-0.250068 -0.15066,-0.09164 -0.29978,-0.189492 -0.45043,-0.295111 -0.15066,-0.104065 -0.30132,-0.215896 -0.45199,-0.335493 -0.14911,-0.118045 -0.29977,-0.242301 -0.45043,-0.372772 -0.15066,-0.130469 -0.29977,-0.267153 -0.45043,-0.410048 -0.15066,-0.141341 -0.30132,-0.288896 -0.45043,-0.441111 -0.15066,-0.150663 -0.30133,-0.307536 -0.45199,-0.469071 -0.14911,-0.159981 -0.29977,-0.324622 -0.45042,-0.492368 -0.15067,-0.1693 -0.30133,-0.340154 -0.45044,-0.514114 -0.15066,-0.17396 -0.30133,-0.351025 -0.45199,-0.529645 -0.1491,-0.17862 -0.29977,-0.358792 -0.45042,-0.540518 -0.15067,-0.181726 -0.29977,-0.365004 -0.45044,-0.548284 -0.15066,-0.183278 -0.30133,-0.366558 -0.45043,-0.549837 -0.15066,-0.183279 -0.30132,-0.366558 -0.45198,-0.546731 -0.15067,-0.181725 -0.29977,-0.363452 -0.45044,-0.542071 -0.15066,-0.178619 -0.30133,-0.354133 -0.45043,-0.529645 -0.15066,-0.17396 -0.30132,-0.344814 -0.45198,-0.51256 -0.14911,-0.167748 -0.29977,-0.332388 -0.45044,-0.493922 -0.15066,-0.159981 -0.29977,-0.316856 -0.45043,-0.46907 -0.15066,-0.152215 -0.30132,-0.29977 -0.45197,-0.441112 -0.14912,-0.141343 -0.29978,-0.278025 -0.45044,-0.408495 -0.15066,-0.13047 -0.29978,-0.25628 -0.45044,-0.374325 -0.15066,-0.118044 -0.30132,-0.229875 -0.45043,-0.335493 -0.15066,-0.105619 -0.30132,-0.203472 -0.45198,-0.293557 -0.14911,-0.09164 -0.29978,-0.175514 -0.45043,-0.251621 -0.15067,-0.07456 -0.30132,-0.142895 -0.45044,-0.203471 -0.15065,-0.06058 -0.30131,-0.113385 -0.45198,-0.156874 -0.14911,-0.04504 -0.29977,-0.08077 -0.45043,-0.108725 -0.15067,-0.02796 -0.29978,-0.04815 -0.45043,-0.05903 -0.15066,-0.01087 -0.30132,-0.01398 -0.45043,-0.0078 -0.15066,0.0047 -0.30133,0.01864 -0.45199,0.04193 -0.15067,0.02175 -0.29977,0.05281 -0.45043,0.09164 -0.15066,0.03883 -0.30132,0.08543 -0.45043,0.141343 -0.15066,0.05436 -0.30133,0.118044 -0.45199,0.187939 -0.1491,0.07145 -0.29977,0.149107 -0.45043,0.236088 -0.15066,0.08543 -0.29976,0.178618 -0.45043,0.279578 -0.15066,0.100958 -0.30133,0.20813 -0.45199,0.321514 -0.1491,0.114939 -0.29977,0.234536 -0.45042,0.361899 -0.15067,0.12581 -0.29977,0.259387 -0.45044,0.397622 -0.15066,0.138236 -0.30133,0.282685 -0.45043,0.430241 -0.15066,0.149108 -0.30133,0.302876 -0.45198,0.461303 -0.14911,0.156875 -0.29977,0.319963 -0.45044,0.484603 -0.15066,0.166194 -0.30132,0.335493 -0.45043,0.5079 -0.15066,0.172407 -0.30133,0.347919 -0.45198,0.524987 -0.14911,0.177066 -0.29977,0.355684 -0.45043,0.537411 -0.15066,0.180172 -0.29978,0.363451 -0.45044,0.545177 -0.15066,0.183279 -0.30132,0.366558 -0.45043,0.549838 -0.15066,0.183278 -0.30132,0.366558 -0.45198,0.549837 -0.15066,0.181725 -0.29978,0.363451 -0.45043,0.543624 -0.15067,0.178619 -0.30133,0.357239 -0.45044,0.532752 -0.15065,0.177066 -0.30131,0.349472 -0.45198,0.520326 -0.14911,0.1693 -0.29977,0.337047 -0.45043,0.500134 -0.15067,0.163087 -0.29978,0.323069 -0.45043,0.47839 -0.15066,0.153768 -0.30132,0.30443 -0.45199,0.450432 -0.1491,0.144448 -0.29977,0.28579 -0.45043,0.419367 -0.15067,0.135129 -0.29977,0.264046 -0.45043,0.38675 -0.15066,0.122703 -0.30132,0.239194 -0.45043,0.347919 -0.15066,0.110278 -0.30133,0.21279 -0.45199,0.30909 -0.1491,0.09475 -0.29977,0.183278 -0.45043,0.264046 -0.15066,0.08232 -0.30132,0.155321 -0.45043,0.220556 -0.15066,0.06523 -0.30133,0.124257 -0.45199,0.17396 -0.1491,0.0497 -0.29977,0.09008 -0.45043,0.124256 -0.15066,0.03261 -0.29976,0.05903 -0.45043,0.07456 -0.15066,0.01709 -0.30133,0.0264 -0.45043,0.0264 -0.15066,0 -0.30133,-0.0093 -0.45199,-0.0264 -0.15065,-0.01554 -0.29976,-0.04193 -0.45043,-0.07456 -0.15066,-0.03417 -0.30132,-0.07455 -0.45043,-0.124256 -0.15066,-0.0497 -0.30133,-0.108725 -0.45198,-0.17396 -0.14912,-0.06523 -0.29977,-0.138236 -0.45043,-0.220556 -0.15066,-0.08077 -0.29977,-0.1693 -0.45044,-0.264046 -0.15066,-0.0963 -0.30132,-0.198812 -0.45043,-0.30909 -0.15066,-0.108725 -0.30132,-0.225216 -0.45198,-0.347919 -0.15066,-0.122704 -0.29977,-0.251621 -0.45043,-0.38675 -0.15066,-0.133577 -0.30133,-0.274919 -0.45044,-0.419367 -0.15066,-0.146002 -0.30131,-0.296664 -0.45198,-0.450432 -0.14911,-0.155321 -0.29976,-0.315303 -0.45043,-0.47839 -0.15066,-0.163087 -0.29977,-0.330834 -0.45043,-0.500134 -0.15067,-0.170854 -0.30132,-0.34326 -0.45199,-0.520326 -0.1491,-0.175513 -0.29976,-0.354133 -0.45043,-0.532752 -0.15066,-0.180173 -0.29977,-0.361899 -0.45043,-0.543624 -0.15066,-0.183279 -0.30132,-0.366559 -0.45043,-0.549837 -0.15066,-0.18328 -0.30132,-0.366559 -0.45199,-0.549838 -0.1491,-0.181726 -0.29977,-0.365005 -0.45043,-0.545177 -0.15066,-0.181727 -0.30132,-0.360345 -0.45043,-0.537411 -0.15066,-0.177068 -0.30132,-0.35258 -0.45199,-0.524987 -0.1491,-0.172407 -0.29977,-0.341706 -0.45043,-0.5079 -0.15066,-0.16464 -0.29977,-0.327728 -0.45042,-0.484603 -0.15067,-0.158427 -0.30133,-0.312195 -0.45044,-0.461303 -0.15066,-0.147556 -0.30133,-0.292005 -0.45199,-0.430241 -0.15066,-0.138235 -0.29977,-0.271812 -0.45042,-0.397622 -0.15067,-0.127363 -0.30132,-0.24696 -0.45044,-0.361899 -0.15066,-0.113384 -0.30132,-0.220556 -0.45198,-0.321514 -0.14911,-0.10096 -0.29978,-0.194152 -0.45043,-0.279578 -0.15066,-0.08698 -0.29977,-0.164641 -0.45044,-0.236088 -0.15066,-0.06989 -0.30132,-0.133577 -0.45198,-0.187939 -0.14911,-0.05591 -0.29977,-0.102512 -0.45043,-0.141343 -0.15066,-0.03883 -0.29977,-0.06989 -0.45043,-0.09164 -0.15066,-0.0233 -0.30133,-0.03728 -0.45044,-0.04193 -0.15066,-0.0063 -0.30132,-0.003 -0.45197,0.0078 -0.14912,0.01087 -0.29977,0.03107 -0.45044,0.05903 -0.15066,0.02796 -0.30133,0.06368 -0.45043,0.108725 -0.15066,0.04349 -0.30133,0.0963 -0.45198,0.156874 -0.14911,0.06058 -0.29977,0.128917 -0.45044,0.203471 -0.15066,0.0761 -0.29977,0.159981 -0.45043,0.251621 -0.15066,0.09008 -0.30132,0.187938 -0.45043,0.293557 -0.15066,0.105618 -0.30132,0.217449 -0.45199,0.335493 -0.15066,0.118045 -0.29977,0.243855 -0.45043,0.374325 -0.15067,0.13047 -0.30132,0.267152 -0.45043,0.408495 -0.15066,0.141342 -0.30132,0.288897 -0.45199,0.441112 -0.1491,0.152214 -0.29977,0.309089 -0.45043,0.46907 -0.15067,0.161534 -0.29977,0.326174 -0.45043,0.493922 -0.15066,0.167746 -0.30132,0.3386 -0.45198,0.51256 -0.14911,0.175512 -0.29978,0.351026 -0.45044,0.529645 -0.15066,0.178619 -0.29977,0.360346 -0.45043,0.542071 -0.15066,0.180173 -0.30131,0.363452 -0.45043,0.546731 -0.15066,0.183279 -0.30132,0.366559 -0.45198,0.549837 -0.14911,0.18328 -0.29978,0.366558 -0.45044,0.548284 -0.15065,0.181726 -0.30131,0.361898 -0.45043,0.540518 -0.15066,0.17862 -0.30132,0.355685 -0.45198,0.529645 -0.14911,0.17396 -0.29977,0.344814 -0.45043,0.514114 -0.15066,0.167746 -0.29977,0.332387 -0.45043,0.492368 -0.15066,0.161535 -0.30133,0.318408 -0.45044,0.469071 -0.15066,0.152215 -0.30132,0.29977 -0.45198,0.441111 -0.150663,0.142895 -0.299765,0.279579 -0.450432,0.410048 -0.150659,0.130471 -0.301326,0.254727 -0.450428,0.372772 -0.150659,0.119597 -0.301326,0.231428 -0.451985,0.335493 -0.149111,0.105619 -0.299769,0.203472 -0.450437,0.295111 -0.150659,0.09009 -0.299769,0.17396 -0.450428,0.250068 -0.150659,0.0761 -0.301326,0.144448 -0.451985,0.205024 -0.14911,0.06058 -0.299769,0.111831 -0.450436,0.156874 -0.150659,0.04349 -0.299769,0.08077 -0.450428,0.108725 -0.150668,0.02796 -0.301327,0.0466 -0.450428,0.05747 -0.150668,0.01242 -0.301327,0.01398 -0.451994,0.0093 -0.149102,-0.0063 -0.299769,-0.02019 -0.450428,-0.04193 -0.150667,-0.0233 -0.301318,-0.05281 -0.450428,-0.09164 -0.150667,-0.03883 -0.301326,-0.08698 -0.451985,-0.141343 -0.14911,-0.05591 -0.299778,-0.118044 -0.450436,-0.189492 -0.150659,-0.06989 -0.29977,-0.149108 -0.450428,-0.234534 C 93.166596,42.242223 93.015946,42.14903 92.866827,42.048072 92.716168,41.948666 92.565509,41.841495 92.41485,41.726556 92.26574,41.613172 92.115073,41.492022 91.964414,41.366211 91.813755,41.238848 91.663096,41.106826 91.513977,40.968589 91.363319,40.830353 91.21266,40.685904 91.062001,40.536796 90.912891,40.387688 90.762232,40.235473 90.611573,40.077045 90.460905,39.918618 90.311795,39.757084 90.161136,39.59089 90.010477,39.424696 89.85981,39.255395 89.7107,39.082989 89.560041,38.912136 89.409382,38.736623 89.258723,38.559557 89.108056,38.382491 88.958954,38.202317 88.808287,38.022145 88.657628,37.84042 88.506961,37.658694 88.357859,37.475414 88.2072,37.292136 88.056533,37.108857 87.905874,36.925577 87.756763,36.742298 87.606105,36.559019 87.455437,36.377293 87.304778,36.194014 87.155668,36.012288 87.005009,35.833669 86.85435,35.653496 86.703683,35.474877 86.553024,35.299364 86.403914,35.123851 86.253255,34.949891 86.102588,34.780591 85.951929,34.609738 85.802819,34.443544 85.65216,34.278904 85.501492,34.115816 85.350833,33.957389 85.201732,33.802067 85.051064,33.646746 84.900405,33.496084 84.749738,33.351636 84.600636,33.205633 84.449969,33.065845 84.29931,32.930715 c -0.150667,-0.13513 -0.301318,-0.262493 -0.450428,-0.385196 -0.150667,-0.122704 -0.301326,-0.239195 -0.451985,-0.349474 -0.14911,-0.108725 -0.299778,-0.21279 -0.450437,-0.307536 -0.150658,-0.0963 -0.299769,-0.184832 -0.450428,-0.265599 -0.150667,-0.08077 -0.301317,-0.153768 -0.450436,-0.220556 -0.150659,-0.06524 -0.301318,-0.122704 -0.451977,-0.172407 -0.150667,-0.0497 -0.299777,-0.09164 -0.450436,-0.124256 -0.150659,-0.03417 -0.301318,-0.05903 -0.450437,-0.07611 -0.150658,-0.01709 -0.301317,-0.02485 -0.451976,-0.02485"
         id="path3033"
         style="fill:none;fill-opacity:1;stroke:url(#linearGradient5322);stroke-width:0.39960614;stroke-linecap:butt;stroke-linejoin:miter;stroke-miterlimit:4;stroke-dasharray:none;stroke-dashoffset:48.99999237;stroke-opacity:1"
         inkscape:connector-curvature="0" />
      <path
         d="m 173.12411,36.014599 c -0.15035,0 -0.3007,0.0078 -0.4509,0.02485 -0.15034,0.01709 -0.3007,0.04194 -0.4509,0.0761 -0.15034,0.03261 -0.3007,0.07455 -0.45089,0.124258 -0.15035,0.0497 -0.30055,0.107171 -0.4509,0.172406 -0.15035,0.06679 -0.30054,0.139789 -0.4509,0.220557 -0.15035,0.08077 -0.30054,0.1693 -0.4509,0.265599 -0.15034,0.09475 -0.30132,0.198811 -0.45043,0.307536 -0.15066,0.110278 -0.30132,0.226769 -0.45198,0.349473 -0.14911,0.122704 -0.29977,0.250067 -0.45044,0.385196 -0.15066,0.13513 -0.29976,0.274919 -0.45043,0.420922 -0.15065,0.144448 -0.30132,0.295109 -0.45042,0.45043 -0.15067,0.155322 -0.30133,0.313749 -0.45199,0.476837 -0.15066,0.16464 -0.29977,0.330835 -0.45044,0.501688 -0.15065,0.1693 -0.30131,0.343259 -0.45042,0.518772 -0.15067,0.175513 -0.30133,0.354133 -0.45199,0.534305 -0.14911,0.17862 -0.29977,0.360345 -0.45043,0.543624 -0.15066,0.181727 -0.29977,0.365005 -0.45043,0.548284 -0.15066,0.18328 -0.30132,0.366559 -0.45199,0.549838 -0.14911,0.183279 -0.29977,0.365005 -0.45043,0.546731 -0.15065,0.180172 -0.29977,0.360345 -0.45042,0.537411 -0.15067,0.177066 -0.30133,0.35258 -0.45044,0.523433 -0.15066,0.172406 -0.30133,0.341707 -0.45199,0.5079 -0.14911,0.166194 -0.29976,0.327728 -0.45042,0.486156 -0.15067,0.158427 -0.30133,0.310642 -0.45044,0.459751 -0.15066,0.149107 -0.30133,0.292004 -0.45199,0.431792 -0.1491,0.138236 -0.29976,0.27026 -0.45042,0.397623 -0.15067,0.12581 -0.29977,0.24696 -0.45044,0.360345 -0.15066,0.114938 -0.30133,0.22211 -0.45043,0.321515 -0.15066,0.100958 -0.30132,0.194151 -0.45198,0.281132 -0.15067,0.08543 -0.29977,0.16464 -0.45044,0.234535 -0.15066,0.07145 -0.30133,0.133575 -0.45043,0.189492 -0.15066,0.05436 -0.30132,0.102512 -0.45198,0.141342 -0.14911,0.03883 -0.29977,0.06834 -0.45044,0.09164 -0.15066,0.02174 -0.29976,0.03572 -0.45043,0.04193 -0.15066,0.0047 -0.30132,0.003 -0.45197,-0.0093 -0.14912,-0.01087 -0.29978,-0.02951 -0.45044,-0.05747 -0.15066,-0.02796 -0.29978,-0.06523 -0.45044,-0.108724 -0.15066,-0.04504 -0.30131,-0.0963 -0.45042,-0.156875 -0.15067,-0.06058 -0.30133,-0.128917 -0.45199,-0.205024 -0.14911,-0.07611 -0.29978,-0.159981 -0.45043,-0.250068 -0.15066,-0.09164 -0.29978,-0.189492 -0.45043,-0.29511 -0.15066,-0.104065 -0.30132,-0.215897 -0.45199,-0.335494 -0.14911,-0.118044 -0.29977,-0.242301 -0.45043,-0.372771 -0.15066,-0.130469 -0.29977,-0.267153 -0.45043,-0.410049 -0.15066,-0.141342 -0.30132,-0.288896 -0.45043,-0.441111 -0.15066,-0.150662 -0.30133,-0.307536 -0.45199,-0.469071 -0.14911,-0.15998 -0.29977,-0.324621 -0.45042,-0.492368 -0.15067,-0.169301 -0.30133,-0.340154 -0.45044,-0.514113 -0.15066,-0.17396 -0.30133,-0.351026 -0.45199,-0.529646 -0.1491,-0.17862 -0.29977,-0.358792 -0.45042,-0.540517 -0.15067,-0.181726 -0.29977,-0.365005 -0.45044,-0.548284 -0.15066,-0.183279 -0.30133,-0.366559 -0.45043,-0.549838 -0.15066,-0.183279 -0.30132,-0.366558 -0.45198,-0.54673 -0.15067,-0.181726 -0.29977,-0.363453 -0.45044,-0.542072 -0.15066,-0.178619 -0.30133,-0.354132 -0.45043,-0.529645 -0.15066,-0.17396 -0.30132,-0.344814 -0.45198,-0.51256 -0.14911,-0.167747 -0.29977,-0.332387 -0.45044,-0.493922 -0.15066,-0.159981 -0.29977,-0.316855 -0.45043,-0.469069 -0.15066,-0.152216 -0.30132,-0.29977 -0.45197,-0.441113 -0.14912,-0.141342 -0.29978,-0.278024 -0.45044,-0.408495 -0.15066,-0.13047 -0.29978,-0.25628 -0.45044,-0.374324 -0.15066,-0.118045 -0.30132,-0.229876 -0.45043,-0.335494 -0.15066,-0.105619 -0.30132,-0.203471 -0.45198,-0.293557 -0.14911,-0.09164 -0.29978,-0.175513 -0.45043,-0.25162 -0.15067,-0.07456 -0.30132,-0.142896 -0.45044,-0.203472 -0.15065,-0.06058 -0.30131,-0.113384 -0.45198,-0.156873 -0.14911,-0.04504 -0.29977,-0.08077 -0.45043,-0.108726 -0.15067,-0.02796 -0.29978,-0.04815 -0.45043,-0.05903 -0.15066,-0.01087 -0.30132,-0.01398 -0.45043,-0.0078 -0.15066,0.0047 -0.30133,0.01864 -0.45199,0.04194 -0.15067,0.02174 -0.29977,0.05281 -0.45043,0.09164 -0.15066,0.03883 -0.30132,0.08543 -0.45043,0.141343 -0.15066,0.05436 -0.30133,0.118044 -0.45199,0.187939 -0.1491,0.07145 -0.29977,0.149107 -0.45043,0.236087 -0.15066,0.08543 -0.29976,0.178619 -0.45043,0.279578 -0.15066,0.100959 -0.30133,0.208131 -0.45199,0.321515 -0.1491,0.114938 -0.29977,0.234535 -0.45042,0.361899 -0.15067,0.12581 -0.29977,0.259387 -0.45044,0.397622 -0.15066,0.138236 -0.30133,0.282685 -0.45043,0.430241 -0.15066,0.149107 -0.30133,0.302875 -0.45198,0.461303 -0.14911,0.156875 -0.29977,0.319962 -0.45044,0.484603 -0.15066,0.166194 -0.30132,0.335493 -0.45043,0.5079 -0.15066,0.172407 -0.30133,0.347919 -0.45198,0.524986 -0.14911,0.177067 -0.29977,0.355685 -0.45043,0.537412 -0.15066,0.180172 -0.29978,0.363451 -0.45044,0.545177 -0.15066,0.183279 -0.30132,0.366558 -0.45043,0.549838 -0.15066,0.183278 -0.30132,0.366558 -0.45198,0.549836 -0.15066,0.181726 -0.29978,0.363452 -0.45043,0.543625 -0.15067,0.178619 -0.30133,0.357239 -0.45044,0.532751 -0.15065,0.177067 -0.30131,0.349473 -0.45198,0.520327 -0.14911,0.1693 -0.29977,0.337046 -0.45043,0.500134 -0.15067,0.163087 -0.29978,0.323068 -0.45043,0.478389 -0.15066,0.153768 -0.30132,0.304431 -0.45199,0.450433 -0.1491,0.144448 -0.29977,0.28579 -0.45043,0.419367 -0.15067,0.135129 -0.29977,0.264046 -0.45043,0.386749 -0.15066,0.122704 -0.30132,0.239195 -0.45043,0.34792 -0.15066,0.110278 -0.30133,0.21279 -0.45199,0.30909 -0.1491,0.09475 -0.29977,0.183278 -0.45043,0.264046 -0.15066,0.08232 -0.30132,0.155321 -0.45043,0.220556 -0.15066,0.06523 -0.30133,0.124256 -0.45199,0.17396 -0.1491,0.0497 -0.29977,0.09009 -0.45043,0.124256 -0.15066,0.03261 -0.29976,0.05903 -0.45043,0.07455 -0.15066,0.01709 -0.30133,0.0264 -0.45043,0.0264 -0.15066,0 -0.30133,-0.0093 -0.45199,-0.0264 -0.15065,-0.01554 -0.29976,-0.04193 -0.45043,-0.07455 -0.15066,-0.03417 -0.30132,-0.07456 -0.45043,-0.124256 -0.15066,-0.0497 -0.30133,-0.108726 -0.45198,-0.17396 -0.14912,-0.06523 -0.29977,-0.138236 -0.45043,-0.220556 -0.15066,-0.08077 -0.29977,-0.169301 -0.45044,-0.264046 -0.15066,-0.0963 -0.30132,-0.198812 -0.45043,-0.30909 -0.15066,-0.108725 -0.30132,-0.225216 -0.45198,-0.34792 -0.15066,-0.122703 -0.29977,-0.25162 -0.45043,-0.386749 -0.15066,-0.133577 -0.30133,-0.274919 -0.45044,-0.419367 -0.15066,-0.146002 -0.30131,-0.296665 -0.45198,-0.450433 -0.14911,-0.155321 -0.29976,-0.315302 -0.45043,-0.478389 -0.15066,-0.163088 -0.29977,-0.330834 -0.45043,-0.500134 -0.15067,-0.170854 -0.30132,-0.34326 -0.45199,-0.520327 -0.1491,-0.175512 -0.29976,-0.354132 -0.45043,-0.532751 -0.15066,-0.180173 -0.29977,-0.361899 -0.45043,-0.543625 -0.15066,-0.183278 -0.30132,-0.366558 -0.45043,-0.549836 -0.15066,-0.18328 -0.30132,-0.366559 -0.45199,-0.549838 -0.1491,-0.181726 -0.29977,-0.365005 -0.45043,-0.545177 -0.15066,-0.181727 -0.30132,-0.360345 -0.45043,-0.537412 -0.15066,-0.177067 -0.30132,-0.352579 -0.45199,-0.524986 -0.1491,-0.172407 -0.29977,-0.341706 -0.45043,-0.5079 -0.15066,-0.164641 -0.29977,-0.327728 -0.45042,-0.484603 -0.15067,-0.158428 -0.30133,-0.312196 -0.45044,-0.461303 -0.15066,-0.147556 -0.30133,-0.292005 -0.45199,-0.430241 -0.15066,-0.138235 -0.29977,-0.271812 -0.45042,-0.397622 -0.15067,-0.127364 -0.30132,-0.246961 -0.45044,-0.361899 -0.15066,-0.113384 -0.30132,-0.220556 -0.45198,-0.321515 -0.14911,-0.100959 -0.29978,-0.194151 -0.45043,-0.279578 -0.15066,-0.08698 -0.29977,-0.164641 -0.45044,-0.236087 -0.15066,-0.06989 -0.30132,-0.133578 -0.45198,-0.187939 -0.14911,-0.05591 -0.29977,-0.102512 -0.45043,-0.141343 -0.15066,-0.03883 -0.29977,-0.06989 -0.45043,-0.09164 -0.15066,-0.0233 -0.30133,-0.03728 -0.45044,-0.04194 -0.15066,-0.0063 -0.30132,-0.003 -0.45197,0.0078 -0.14912,0.01087 -0.29977,0.03107 -0.45044,0.05903 -0.15066,0.02796 -0.30133,0.06368 -0.45043,0.108726 -0.15066,0.04349 -0.30133,0.0963 -0.45198,0.156873 -0.14911,0.06058 -0.29977,0.128917 -0.45044,0.203472 -0.15066,0.0761 -0.29977,0.159981 -0.45043,0.25162 -0.15066,0.09009 -0.30132,0.187938 -0.45043,0.293557 -0.15066,0.105618 -0.30132,0.217449 -0.45199,0.335494 -0.15066,0.118044 -0.29977,0.243854 -0.45043,0.374324 -0.15067,0.130471 -0.30132,0.267153 -0.45043,0.408495 -0.15066,0.141343 -0.30132,0.288897 -0.45199,0.441113 -0.1491,0.152214 -0.29977,0.309088 -0.45043,0.469069 -0.15067,0.161535 -0.29977,0.326175 -0.45043,0.493922 -0.15066,0.167746 -0.30132,0.3386 -0.45198,0.51256 -0.14911,0.175513 -0.29978,0.351026 -0.45044,0.529645 -0.15066,0.178619 -0.29977,0.360346 -0.45043,0.542072 -0.15066,0.180172 -0.30131,0.363451 -0.45043,0.54673 -0.15066,0.183279 -0.30132,0.366559 -0.45198,0.549838 -0.14911,0.183279 -0.29978,0.366558 -0.45044,0.548284 -0.15065,0.181725 -0.30131,0.361897 -0.45043,0.540517 -0.15066,0.17862 -0.30132,0.355686 -0.45198,0.529646 -0.14911,0.173959 -0.29977,0.344812 -0.45043,0.514113 -0.15066,0.167747 -0.29977,0.332388 -0.45043,0.492368 -0.15066,0.161535 -0.30133,0.318409 -0.45044,0.469071 -0.15066,0.152215 -0.30132,0.299769 -0.45198,0.441111 -0.150663,0.142896 -0.299765,0.27958 -0.450432,0.410049 -0.150659,0.13047 -0.301326,0.254727 -0.450428,0.372771 -0.150659,0.119597 -0.301326,0.231429 -0.451985,0.335494 -0.149111,0.105618 -0.299769,0.20347 -0.450437,0.29511 -0.150659,0.09009 -0.299769,0.17396 -0.450428,0.250068 -0.150659,0.0761 -0.301326,0.144448 -0.451985,0.205024 -0.14911,0.06058 -0.299769,0.111831 -0.450436,0.156875 -0.150659,0.04349 -0.299769,0.08077 -0.450428,0.108724 -0.150668,0.02796 -0.301327,0.0466 -0.450428,0.05747 -0.150668,0.01242 -0.301327,0.01398 -0.451994,0.0093 -0.149102,-0.0063 -0.299769,-0.02019 -0.450428,-0.04193 -0.150667,-0.0233 -0.301318,-0.05281 -0.450428,-0.09164 -0.150667,-0.03883 -0.301326,-0.08698 -0.451985,-0.141342 -0.14911,-0.05591 -0.299778,-0.118045 -0.450436,-0.189492 -0.150659,-0.06989 -0.29977,-0.149109 -0.450428,-0.234535 -0.150668,-0.08698 -0.301318,-0.180174 -0.450437,-0.281132 C 92.716168,46.958526 92.565509,46.851354 92.41485,46.736416 92.26574,46.623031 92.115073,46.501881 91.964414,46.376071 91.813755,46.248708 91.663096,46.116684 91.513977,45.978448 91.363319,45.840212 91.21266,45.695763 91.062001,45.546656 90.912891,45.397547 90.762232,45.245332 90.611573,45.086905 90.460905,44.928477 90.311795,44.766943 90.161136,44.600749 90.010477,44.434556 89.85981,44.265255 89.7107,44.092849 89.560041,43.921996 89.409382,43.746482 89.258723,43.569416 89.108056,43.39235 88.958954,43.212177 88.808287,43.032005 88.657628,42.850279 88.506961,42.668553 88.357859,42.485274 88.2072,42.301995 88.056533,42.118716 87.905874,41.935436 87.756763,41.752157 87.606105,41.568879 87.455437,41.387152 87.304778,41.203873 87.155668,41.022148 87.005009,40.843528 86.85435,40.663356 86.703683,40.484736 86.553024,40.309223 86.403914,40.13371 86.253255,39.959751 86.102588,39.790451 85.951929,39.619598 85.802819,39.453403 85.65216,39.288763 85.501492,39.125675 85.350833,38.967248 85.201732,38.811926 85.051064,38.656605 84.900405,38.505944 84.749738,38.361496 84.600636,38.215493 84.449969,38.075704 84.29931,37.940574 84.148643,37.805445 83.997992,37.678082 83.848882,37.555378 83.698215,37.432674 83.547556,37.316183 83.396897,37.205905 83.247787,37.09718 83.097119,36.993115 82.94646,36.898369 82.795802,36.802069 82.646691,36.713536 82.496032,36.63277 82.345365,36.552 82.194715,36.479001 82.045596,36.412213 c -0.150659,-0.06523 -0.301318,-0.122704 -0.451977,-0.172406 -0.150667,-0.04971 -0.299777,-0.09164 -0.450436,-0.124258 -0.150659,-0.03417 -0.301318,-0.05903 -0.450437,-0.0761 -0.150658,-0.01709 -0.301317,-0.02485 -0.451976,-0.02485"
         id="path3033-3"
         style="fill:none;fill-opacity:1;stroke:url(#linearGradient5282);stroke-width:0.39960614;stroke-linecap:butt;stroke-linejoin:miter;stroke-miterlimit:4;stroke-dasharray:none;stroke-dashoffset:48.99999237;stroke-opacity:1"
         inkscape:connector-curvature="0" />
      <path
         d="m 173.12411,41.024461 c -0.15035,0 -0.3007,0.0078 -0.4509,0.02485 -0.15034,0.01709 -0.3007,0.04193 -0.4509,0.0761 -0.15034,0.03261 -0.3007,0.07456 -0.45089,0.124257 -0.15035,0.0497 -0.30055,0.107171 -0.4509,0.172407 -0.15035,0.06679 -0.30054,0.139788 -0.4509,0.220556 -0.15035,0.08077 -0.30054,0.1693 -0.4509,0.265599 -0.15034,0.09475 -0.30132,0.198811 -0.45043,0.307537 -0.15066,0.110278 -0.30132,0.226768 -0.45198,0.349472 -0.14911,0.122704 -0.29977,0.250068 -0.45044,0.385197 -0.15066,0.135129 -0.29976,0.274918 -0.45043,0.420921 -0.15065,0.144448 -0.30132,0.295109 -0.45042,0.450431 -0.15067,0.155322 -0.30133,0.313749 -0.45199,0.476836 -0.15067,0.164641 -0.29978,0.330835 -0.45044,0.501688 -0.15065,0.1693 -0.30132,0.343259 -0.45043,0.518772 -0.15066,0.175513 -0.30132,0.354133 -0.45199,0.534306 -0.14911,0.17862 -0.29977,0.360344 -0.45042,0.543624 -0.15066,0.181726 -0.29978,0.365005 -0.45043,0.548284 -0.15067,0.183279 -0.30133,0.366559 -0.452,0.549838 -0.1491,0.183278 -0.29976,0.365005 -0.45042,0.54673 -0.15066,0.180173 -0.29977,0.360345 -0.45043,0.537412 -0.15067,0.177066 -0.30133,0.352579 -0.45044,0.523433 -0.15066,0.172406 -0.30133,0.341706 -0.45198,0.507899 -0.14911,0.166195 -0.29977,0.327729 -0.45043,0.486156 -0.15067,0.158427 -0.30133,0.310643 -0.45044,0.459751 -0.15066,0.149108 -0.30132,0.292004 -0.45198,0.431793 -0.14911,0.138236 -0.29977,0.27026 -0.45043,0.397623 -0.15067,0.12581 -0.29977,0.24696 -0.45044,0.360345 -0.15066,0.114937 -0.30132,0.222109 -0.45043,0.321514 -0.15066,0.100959 -0.30132,0.194152 -0.45198,0.281132 -0.15066,0.08543 -0.29977,0.164641 -0.45044,0.234535 -0.15066,0.07145 -0.30132,0.133576 -0.45043,0.189492 -0.15065,0.05436 -0.30132,0.102513 -0.45197,0.141342 -0.14912,0.03883 -0.29978,0.06834 -0.45044,0.09164 -0.15066,0.02174 -0.29977,0.03572 -0.45044,0.04194 -0.15065,0.0047 -0.30131,0.003 -0.45197,-0.0093 -0.14912,-0.01087 -0.29978,-0.02951 -0.45044,-0.05747 -0.15066,-0.02796 -0.29978,-0.06523 -0.45043,-0.108724 -0.15066,-0.04504 -0.30132,-0.0963 -0.45043,-0.156875 -0.15066,-0.06058 -0.30132,-0.128917 -0.45199,-0.205024 -0.14911,-0.0761 -0.29977,-0.159981 -0.45043,-0.250067 -0.15066,-0.09164 -0.29977,-0.189492 -0.45042,-0.29511 -0.15067,-0.104066 -0.30133,-0.215897 -0.452,-0.335495 -0.1491,-0.118043 -0.29977,-0.242301 -0.45043,-0.37277 -0.15066,-0.13047 -0.29976,-0.267153 -0.45042,-0.410048 -0.15067,-0.141343 -0.30133,-0.288898 -0.45044,-0.441113 -0.15066,-0.150661 -0.30133,-0.307536 -0.45199,-0.46907 -0.1491,-0.15998 -0.29976,-0.324621 -0.45042,-0.492368 -0.15067,-0.169301 -0.30133,-0.340154 -0.45044,-0.514113 -0.15066,-0.17396 -0.30133,-0.351026 -0.45198,-0.529645 -0.14911,-0.17862 -0.29977,-0.358793 -0.45043,-0.540518 -0.15067,-0.181727 -0.29977,-0.365006 -0.45044,-0.548284 -0.15066,-0.18328 -0.30133,-0.366559 -0.45043,-0.549838 -0.15066,-0.183279 -0.30132,-0.366558 -0.45198,-0.546731 -0.15066,-0.181726 -0.29977,-0.363451 -0.45044,-0.542071 -0.15066,-0.17862 -0.30132,-0.354132 -0.45043,-0.529645 -0.15066,-0.173959 -0.30132,-0.344813 -0.45197,-0.512561 -0.14912,-0.167746 -0.29978,-0.332387 -0.45044,-0.493921 -0.15066,-0.15998 -0.29978,-0.316855 -0.45044,-0.46907 -0.15066,-0.152215 -0.30131,-0.29977 -0.45197,-0.441113 -0.14912,-0.141342 -0.29978,-0.278024 -0.45044,-0.408495 -0.15066,-0.130469 -0.29978,-0.256279 -0.45043,-0.374324 -0.15066,-0.118043 -0.30132,-0.229875 -0.45043,-0.335493 -0.15066,-0.105619 -0.30132,-0.203471 -0.45199,-0.293558 -0.14911,-0.09164 -0.29977,-0.175513 -0.45043,-0.25162 -0.15066,-0.07456 -0.30132,-0.142895 -0.45043,-0.203471 -0.15066,-0.06058 -0.30132,-0.113384 -0.45199,-0.156874 -0.1491,-0.04504 -0.29977,-0.08077 -0.45043,-0.108725 -0.15066,-0.02796 -0.29977,-0.04815 -0.45042,-0.05903 -0.15067,-0.01087 -0.30133,-0.01398 -0.45044,-0.0078 -0.15066,0.0047 -0.30133,0.01864 -0.45199,0.04194 -0.15066,0.02175 -0.29977,0.05281 -0.45042,0.09164 -0.15067,0.03883 -0.30133,0.08543 -0.45044,0.141342 -0.15066,0.05436 -0.30133,0.118044 -0.45199,0.187939 -0.1491,0.07145 -0.29976,0.149109 -0.45042,0.236088 -0.15067,0.08543 -0.29977,0.17862 -0.45044,0.279578 -0.15066,0.100959 -0.30133,0.208131 -0.45198,0.321515 -0.14911,0.114938 -0.29977,0.234536 -0.45043,0.361899 -0.15066,0.12581 -0.29977,0.259387 -0.45044,0.397622 -0.15066,0.138236 -0.30132,0.282685 -0.45043,0.43024 -0.15066,0.149109 -0.30132,0.302877 -0.45197,0.461304 -0.14912,0.156875 -0.29978,0.319962 -0.45044,0.484603 -0.15066,0.166193 -0.30133,0.335493 -0.45044,0.5079 -0.15066,0.172407 -0.30132,0.34792 -0.45197,0.524986 -0.14912,0.177066 -0.29978,0.355685 -0.45044,0.537411 -0.15066,0.180173 -0.29978,0.363452 -0.45043,0.545178 -0.15066,0.183279 -0.30132,0.366557 -0.45043,0.549837 -0.15066,0.183279 -0.30132,0.366558 -0.45199,0.549838 -0.15066,0.181725 -0.29977,0.363451 -0.45043,0.543623 -0.15067,0.17862 -0.30132,0.357239 -0.45043,0.532752 -0.15066,0.177067 -0.30132,0.349473 -0.45199,0.520326 -0.1491,0.1693 -0.29977,0.337048 -0.45043,0.500135 -0.15066,0.163087 -0.29977,0.323069 -0.45043,0.47839 -0.15066,0.153768 -0.30132,0.304429 -0.45199,0.450431 -0.1491,0.144449 -0.29977,0.285791 -0.45043,0.419367 -0.15066,0.13513 -0.29977,0.264047 -0.45043,0.386751 -0.15066,0.122703 -0.30132,0.239194 -0.45043,0.347919 -0.15066,0.110278 -0.30133,0.212789 -0.45199,0.309089 -0.1491,0.09475 -0.29977,0.183279 -0.45042,0.264046 -0.15067,0.08232 -0.30133,0.155321 -0.45044,0.220556 -0.15066,0.06523 -0.30133,0.124257 -0.45198,0.17396 -0.14911,0.04971 -0.29978,0.09009 -0.45043,0.124257 -0.15066,0.03261 -0.29977,0.05903 -0.45044,0.07455 -0.15066,0.01709 -0.30132,0.0264 -0.45043,0.0264 -0.15066,0 -0.30133,-0.0093 -0.45198,-0.0264 -0.15066,-0.01554 -0.29977,-0.04194 -0.45043,-0.07455 -0.15066,-0.03417 -0.30133,-0.07456 -0.45044,-0.124257 -0.15066,-0.0497 -0.30132,-0.108725 -0.45198,-0.17396 -0.14911,-0.06523 -0.29977,-0.138236 -0.45043,-0.220556 -0.15066,-0.08077 -0.29977,-0.1693 -0.45043,-0.264046 -0.15066,-0.0963 -0.30133,-0.198811 -0.45044,-0.309089 -0.15065,-0.108725 -0.30131,-0.225216 -0.45198,-0.347919 -0.15066,-0.122704 -0.29976,-0.251621 -0.45043,-0.386751 -0.15066,-0.133576 -0.30133,-0.274918 -0.45043,-0.419367 -0.15066,-0.146002 -0.30132,-0.296663 -0.45199,-0.450431 -0.1491,-0.155321 -0.29976,-0.315303 -0.45043,-0.47839 -0.15066,-0.163087 -0.29977,-0.330835 -0.45043,-0.500135 -0.15066,-0.170853 -0.30132,-0.343259 -0.45199,-0.520326 -0.1491,-0.175513 -0.29976,-0.354132 -0.45043,-0.532752 -0.15066,-0.180172 -0.29977,-0.361898 -0.45043,-0.543623 -0.15066,-0.18328 -0.30132,-0.366559 -0.45042,-0.549838 -0.15067,-0.18328 -0.30133,-0.366558 -0.452,-0.549837 -0.1491,-0.181726 -0.29977,-0.365005 -0.45043,-0.545178 -0.15066,-0.181726 -0.30132,-0.360345 -0.45042,-0.537411 -0.15067,-0.177066 -0.30133,-0.352579 -0.45199,-0.524986 -0.14911,-0.172407 -0.29978,-0.341707 -0.45044,-0.5079 -0.15065,-0.164641 -0.29976,-0.327728 -0.45042,-0.484603 -0.15067,-0.158427 -0.30133,-0.312195 -0.45044,-0.461304 -0.15066,-0.147555 -0.30133,-0.292004 -0.45198,-0.43024 -0.15066,-0.138235 -0.29977,-0.271812 -0.45043,-0.397622 -0.15066,-0.127363 -0.30132,-0.246961 -0.45044,-0.361899 -0.15066,-0.113384 -0.30132,-0.220556 -0.45198,-0.321515 -0.14911,-0.100958 -0.29977,-0.194151 -0.45042,-0.279578 -0.15067,-0.08698 -0.29978,-0.16464 -0.45044,-0.236088 -0.15066,-0.06989 -0.30133,-0.133576 -0.45199,-0.187939 -0.14911,-0.05591 -0.29976,-0.102512 -0.45042,-0.141342 -0.15067,-0.03883 -0.29977,-0.06989 -0.45044,-0.09164 -0.15066,-0.0233 -0.30133,-0.03728 -0.45043,-0.04194 -0.15066,-0.0063 -0.30132,-0.003 -0.45198,0.0078 -0.14911,0.01088 -0.29977,0.03107 -0.45044,0.05903 -0.15066,0.02796 -0.30133,0.06368 -0.45043,0.108725 -0.15066,0.04349 -0.30132,0.0963 -0.45198,0.156874 -0.14911,0.06058 -0.29977,0.128917 -0.45044,0.203471 -0.15066,0.0761 -0.29977,0.159981 -0.45043,0.25162 -0.15066,0.09009 -0.30132,0.187939 -0.45043,0.293558 -0.15066,0.105618 -0.30132,0.21745 -0.45199,0.335493 -0.15066,0.118045 -0.29977,0.243855 -0.45043,0.374324 -0.15066,0.130471 -0.30131,0.267153 -0.45042,0.408495 -0.15067,0.141343 -0.30133,0.288898 -0.45199,0.441113 -0.14911,0.152215 -0.29978,0.30909 -0.45044,0.46907 -0.15066,0.161534 -0.29977,0.326175 -0.45042,0.493921 -0.15067,0.167748 -0.30132,0.338602 -0.45199,0.512561 -0.14911,0.175513 -0.29977,0.351025 -0.45043,0.529645 -0.15066,0.17862 -0.29978,0.360345 -0.45043,0.542071 -0.15066,0.180173 -0.30132,0.363452 -0.45044,0.546731 -0.15066,0.183279 -0.30132,0.366558 -0.45198,0.549838 -0.14911,0.183278 -0.29977,0.366557 -0.45043,0.548284 -0.15066,0.181725 -0.30132,0.361898 -0.45043,0.540518 -0.15066,0.178619 -0.30133,0.355685 -0.45199,0.529645 -0.14911,0.173959 -0.29977,0.344812 -0.45042,0.514113 -0.15067,0.167747 -0.29977,0.332388 -0.45044,0.492368 -0.15066,0.161534 -0.30133,0.318409 -0.45043,0.46907 -0.15066,0.152215 -0.30133,0.29977 -0.45198,0.441113 -0.150672,0.142895 -0.299773,0.279578 -0.450441,0.410048 -0.150659,0.130469 -0.301326,0.254727 -0.450428,0.37277 -0.150659,0.119598 -0.301326,0.231429 -0.451985,0.335495 -0.14911,0.105618 -0.299769,0.20347 -0.450436,0.29511 -0.150659,0.09009 -0.299769,0.17396 -0.450428,0.250067 -0.150659,0.0761 -0.301326,0.144449 -0.451985,0.205024 -0.149111,0.06058 -0.299769,0.111831 -0.450437,0.156875 -0.150659,0.04349 -0.299769,0.08077 -0.450428,0.108724 -0.150667,0.02796 -0.301318,0.0466 -0.450428,0.05747 -0.150667,0.01242 -0.301326,0.01397 -0.451985,0.0093 -0.14911,-0.0063 -0.299777,-0.02019 -0.450436,-0.04194 -0.150659,-0.0233 -0.301318,-0.05281 -0.450428,-0.09164 -0.150668,-0.03883 -0.301318,-0.08698 -0.451985,-0.141342 -0.149111,-0.05591 -0.29977,-0.118044 -0.450428,-0.189492 -0.150668,-0.06989 -0.299778,-0.149108 -0.450437,-0.234535 -0.150659,-0.08698 -0.301318,-0.180173 -0.450436,-0.281132 -0.150659,-0.0994 -0.301318,-0.206577 -0.451977,-0.321514 -0.14911,-0.113385 -0.299769,-0.234535 -0.450428,-0.360345 C 91.813747,51.25857 91.663088,51.126546 91.513977,50.98831 91.363319,50.850074 91.212651,50.705625 91.061992,50.556517 90.912882,50.407409 90.762223,50.255193 90.611564,50.096766 90.460897,49.938339 90.311795,49.776805 90.161128,49.61061 90.010469,49.444417 89.859802,49.275117 89.7107,49.102711 89.560041,48.931857 89.409374,48.756344 89.258715,48.579278 89.108047,48.402211 88.958946,48.222039 88.808278,48.041866 88.657619,47.860141 88.506952,47.678414 88.35785,47.495136 88.207191,47.311857 88.056524,47.128577 87.905865,46.945298 87.756755,46.762019 87.606096,46.57874 87.455429,46.397014 87.30477,46.213734 87.15566,46.03201 87.005001,45.85339 86.854342,45.673217 86.703675,45.494597 86.553016,45.319084 86.403905,45.143571 86.253247,44.969612 86.102579,44.800312 85.95192,44.629459 85.80281,44.463265 85.652151,44.298624 85.501484,44.135537 85.350833,43.97711 85.201723,43.821788 85.051056,43.666466 84.900397,43.515805 84.749738,43.371357 84.600628,43.225354 84.44996,43.085565 84.299302,42.950436 84.148643,42.815307 83.997984,42.687943 83.848874,42.565239 83.698206,42.442535 83.547556,42.326045 83.396888,42.215767 83.247778,42.107041 83.097119,42.002976 82.94646,41.90823 c -0.150667,-0.0963 -0.299777,-0.184832 -0.450436,-0.265599 -0.150659,-0.08077 -0.301318,-0.153768 -0.450436,-0.220556 -0.150659,-0.06523 -0.301318,-0.122704 -0.451977,-0.172407 -0.150667,-0.0497 -0.299769,-0.09164 -0.450428,-0.124257 -0.150667,-0.03417 -0.301326,-0.05903 -0.450437,-0.0761 -0.150658,-0.01709 -0.301326,-0.02485 -0.451985,-0.02485"
         id="path3033-6"
         style="fill:none;fill-opacity:1;stroke:url(#linearGradient5290);stroke-width:0.39960614;stroke-linecap:butt;stroke-linejoin:miter;stroke-miterlimit:4;stroke-dasharray:none;stroke-dashoffset:48.99999237;stroke-opacity:1"
         inkscape:connector-curvature="0" />
      <path
         d="m 173.12411,46.034325 c -0.15035,0 -0.3007,0.0078 -0.4509,0.02485 -0.15034,0.01709 -0.3007,0.04194 -0.4509,0.0761 -0.15034,0.03261 -0.3007,0.07455 -0.45089,0.124256 -0.15035,0.0497 -0.30055,0.107172 -0.4509,0.172407 -0.15035,0.06679 -0.30054,0.139789 -0.4509,0.220556 -0.15035,0.08077 -0.30054,0.1693 -0.4509,0.265599 -0.15034,0.09475 -0.30132,0.198812 -0.45043,0.307537 -0.15066,0.110278 -0.30132,0.226769 -0.45198,0.349472 -0.14911,0.122704 -0.29977,0.250067 -0.45044,0.385197 -0.15066,0.13513 -0.29976,0.274918 -0.45043,0.420921 -0.15065,0.144448 -0.30132,0.29511 -0.45042,0.450432 -0.15067,0.15532 -0.30133,0.313748 -0.45199,0.476836 -0.15066,0.16464 -0.29977,0.330834 -0.45044,0.501687 -0.15065,0.1693 -0.30131,0.34326 -0.45042,0.518773 -0.15067,0.175513 -0.30133,0.354133 -0.45199,0.534305 -0.14911,0.17862 -0.29977,0.360345 -0.45043,0.543625 -0.15066,0.181725 -0.29977,0.365005 -0.45043,0.548283 -0.15066,0.18328 -0.30132,0.366559 -0.45199,0.549838 -0.14911,0.183279 -0.29977,0.365005 -0.45043,0.54673 -0.15065,0.180173 -0.29977,0.360346 -0.45042,0.537412 -0.15067,0.177067 -0.30133,0.352579 -0.45044,0.523433 -0.15066,0.172406 -0.30133,0.341706 -0.45199,0.5079 -0.14911,0.166194 -0.29976,0.327728 -0.45042,0.486155 -0.15067,0.158428 -0.30133,0.310644 -0.45044,0.459751 -0.15066,0.149109 -0.30133,0.292005 -0.45199,0.431794 -0.1491,0.138236 -0.29976,0.270258 -0.45042,0.397621 -0.15067,0.125811 -0.29977,0.246961 -0.45044,0.360346 -0.15066,0.114938 -0.30133,0.222109 -0.45043,0.321515 -0.15066,0.100959 -0.30132,0.194152 -0.45198,0.281132 -0.15067,0.08543 -0.29977,0.16464 -0.45044,0.234534 -0.15066,0.07145 -0.30133,0.133577 -0.45043,0.189492 -0.15066,0.05436 -0.30132,0.102513 -0.45198,0.141343 -0.14911,0.03883 -0.29977,0.06834 -0.45044,0.09164 -0.15066,0.02174 -0.29976,0.03572 -0.45043,0.04194 -0.15066,0.0047 -0.30132,0.003 -0.45197,-0.0093 -0.14912,-0.01087 -0.29978,-0.02951 -0.45044,-0.05747 -0.15066,-0.02796 -0.29978,-0.06523 -0.45044,-0.108724 -0.15066,-0.04504 -0.30131,-0.0963 -0.45042,-0.156875 -0.15067,-0.06058 -0.30133,-0.128917 -0.45199,-0.205024 -0.14911,-0.0761 -0.29978,-0.159981 -0.45043,-0.250067 -0.15066,-0.09164 -0.29978,-0.189493 -0.45043,-0.29511 -0.15066,-0.104066 -0.30132,-0.215897 -0.45199,-0.335495 -0.14911,-0.118043 -0.29977,-0.242301 -0.45043,-0.372771 -0.15066,-0.130469 -0.29977,-0.267152 -0.45043,-0.410048 -0.15066,-0.141342 -0.30132,-0.288897 -0.45043,-0.441112 -0.15066,-0.150661 -0.30133,-0.307536 -0.45199,-0.46907 -0.14911,-0.159981 -0.29977,-0.324622 -0.45042,-0.492369 -0.15067,-0.1693 -0.30133,-0.340153 -0.45044,-0.514113 -0.15066,-0.173959 -0.30133,-0.351026 -0.45199,-0.529646 -0.1491,-0.178619 -0.29977,-0.358792 -0.45042,-0.540517 -0.15067,-0.181726 -0.29977,-0.365005 -0.45044,-0.548283 -0.15066,-0.18328 -0.30133,-0.366559 -0.45043,-0.549838 -0.15066,-0.18328 -0.30132,-0.366558 -0.45198,-0.546731 -0.15067,-0.181726 -0.29977,-0.363452 -0.45044,-0.542071 -0.15066,-0.17862 -0.30133,-0.354133 -0.45043,-0.529646 -0.15066,-0.173959 -0.30132,-0.344813 -0.45198,-0.51256 -0.14911,-0.167746 -0.29977,-0.332387 -0.45044,-0.493921 -0.15066,-0.159981 -0.29977,-0.316855 -0.45043,-0.46907 -0.15066,-0.152216 -0.30132,-0.29977 -0.45197,-0.441113 -0.14912,-0.141342 -0.29978,-0.278024 -0.45044,-0.408495 -0.15066,-0.130469 -0.29978,-0.256279 -0.45044,-0.374324 -0.15066,-0.118044 -0.30132,-0.229875 -0.45043,-0.335493 -0.15066,-0.10562 -0.30132,-0.203471 -0.45198,-0.293558 -0.14911,-0.09164 -0.29978,-0.175513 -0.45043,-0.25162 -0.15067,-0.07456 -0.30132,-0.142896 -0.45044,-0.203472 -0.15065,-0.06058 -0.30131,-0.113384 -0.45198,-0.156873 -0.14911,-0.04504 -0.29977,-0.08077 -0.45043,-0.108726 -0.15067,-0.02796 -0.29978,-0.04815 -0.45043,-0.05903 -0.15066,-0.01087 -0.30132,-0.01397 -0.45043,-0.0078 -0.15066,0.0047 -0.30133,0.01864 -0.45199,0.04194 -0.15067,0.02174 -0.29977,0.05281 -0.45043,0.09164 -0.15066,0.03883 -0.30132,0.08543 -0.45043,0.141343 -0.15066,0.05436 -0.30133,0.118044 -0.45199,0.187939 -0.1491,0.07145 -0.29977,0.149108 -0.45043,0.236088 -0.15066,0.08543 -0.29976,0.178619 -0.45043,0.279578 -0.15066,0.100959 -0.30133,0.20813 -0.45199,0.321515 -0.1491,0.114938 -0.29977,0.234535 -0.45042,0.361899 -0.15067,0.12581 -0.29977,0.259386 -0.45044,0.397622 -0.15066,0.138236 -0.30133,0.282684 -0.45043,0.43024 -0.15066,0.149108 -0.30133,0.302876 -0.45198,0.461304 -0.14911,0.156875 -0.29977,0.319962 -0.45044,0.484602 -0.15066,0.166194 -0.30132,0.335494 -0.45043,0.507901 -0.15066,0.172407 -0.30133,0.347919 -0.45198,0.524986 -0.14911,0.177066 -0.29977,0.355685 -0.45043,0.537411 -0.15066,0.180173 -0.29978,0.363451 -0.45044,0.545177 -0.15066,0.18328 -0.30132,0.366558 -0.45043,0.549838 -0.15066,0.183279 -0.30132,0.366558 -0.45198,0.549836 -0.15066,0.181727 -0.29978,0.363452 -0.45043,0.543625 -0.15067,0.17862 -0.30133,0.357239 -0.45044,0.532752 -0.15065,0.177067 -0.30131,0.349473 -0.45198,0.520326 -0.14911,0.1693 -0.29977,0.337047 -0.45043,0.500134 -0.15067,0.163088 -0.29978,0.323069 -0.45043,0.47839 -0.15066,0.153768 -0.30132,0.30443 -0.45199,0.450432 -0.1491,0.144449 -0.29977,0.28579 -0.45043,0.419367 -0.15067,0.13513 -0.29977,0.264047 -0.45043,0.38675 -0.15066,0.122703 -0.30132,0.239195 -0.45043,0.34792 -0.15066,0.110278 -0.30133,0.212789 -0.45199,0.309089 -0.1491,0.09475 -0.29977,0.183278 -0.45043,0.264046 -0.15066,0.08232 -0.30132,0.155321 -0.45043,0.220556 -0.15066,0.06524 -0.30133,0.124257 -0.45199,0.17396 -0.1491,0.0497 -0.29977,0.09009 -0.45043,0.124256 -0.15066,0.03261 -0.29976,0.05903 -0.45043,0.07455 -0.15066,0.01709 -0.30133,0.0264 -0.45043,0.0264 -0.15066,0 -0.30133,-0.0093 -0.45199,-0.0264 -0.15065,-0.01554 -0.29976,-0.04194 -0.45043,-0.07455 -0.15066,-0.03417 -0.30132,-0.07456 -0.45043,-0.124256 -0.15066,-0.0497 -0.30133,-0.108725 -0.45198,-0.17396 -0.14912,-0.06523 -0.29977,-0.138236 -0.45043,-0.220556 -0.15066,-0.08077 -0.29977,-0.1693 -0.45044,-0.264046 -0.15066,-0.0963 -0.30132,-0.198811 -0.45043,-0.309089 -0.15066,-0.108725 -0.30132,-0.225217 -0.45198,-0.34792 -0.15066,-0.122703 -0.29977,-0.25162 -0.45043,-0.38675 -0.15066,-0.133577 -0.30133,-0.274918 -0.45044,-0.419367 -0.15066,-0.146002 -0.30131,-0.296664 -0.45198,-0.450432 -0.14911,-0.155321 -0.29976,-0.315302 -0.45043,-0.47839 -0.15066,-0.163087 -0.29977,-0.330834 -0.45043,-0.500134 -0.15067,-0.170853 -0.30132,-0.343259 -0.45199,-0.520326 -0.1491,-0.175513 -0.29976,-0.354132 -0.45043,-0.532752 -0.15066,-0.180173 -0.29977,-0.361898 -0.45043,-0.543625 -0.15066,-0.183278 -0.30132,-0.366557 -0.45043,-0.549836 -0.15066,-0.18328 -0.30132,-0.366558 -0.45199,-0.549838 -0.1491,-0.181726 -0.29977,-0.365004 -0.45043,-0.545177 -0.15066,-0.181726 -0.30132,-0.360345 -0.45043,-0.537411 -0.15066,-0.177067 -0.30132,-0.352579 -0.45199,-0.524986 -0.1491,-0.172407 -0.29977,-0.341707 -0.45043,-0.507901 -0.15066,-0.16464 -0.29977,-0.327727 -0.45042,-0.484602 -0.15067,-0.158428 -0.30133,-0.312196 -0.45044,-0.461304 -0.15066,-0.147556 -0.30133,-0.292004 -0.45199,-0.43024 -0.15066,-0.138236 -0.29977,-0.271812 -0.45042,-0.397622 -0.15067,-0.127364 -0.30132,-0.246961 -0.45044,-0.361899 -0.15066,-0.113385 -0.30132,-0.220556 -0.45198,-0.321515 -0.14911,-0.100959 -0.29978,-0.194151 -0.45043,-0.279578 -0.15066,-0.08698 -0.29977,-0.164641 -0.45044,-0.236088 -0.15066,-0.06989 -0.30132,-0.133577 -0.45198,-0.187939 -0.14911,-0.05591 -0.29977,-0.102512 -0.45043,-0.141343 -0.15066,-0.03883 -0.29977,-0.06989 -0.45043,-0.09164 -0.15066,-0.0233 -0.30133,-0.03728 -0.45044,-0.04194 -0.15066,-0.0063 -0.30132,-0.003 -0.45197,0.0078 -0.14912,0.01087 -0.29977,0.03107 -0.45044,0.05903 -0.15066,0.02796 -0.30133,0.06368 -0.45043,0.108726 -0.15066,0.04349 -0.30133,0.0963 -0.45198,0.156873 -0.14911,0.06058 -0.29977,0.128917 -0.45044,0.203472 -0.15066,0.0761 -0.29977,0.159981 -0.45043,0.25162 -0.15066,0.09009 -0.30132,0.187938 -0.45043,0.293558 -0.15066,0.105618 -0.30132,0.217449 -0.45199,0.335493 -0.15066,0.118045 -0.29977,0.243855 -0.45043,0.374324 -0.15067,0.130471 -0.30132,0.267153 -0.45043,0.408495 -0.15066,0.141343 -0.30132,0.288897 -0.45199,0.441113 -0.1491,0.152215 -0.29977,0.309089 -0.45043,0.46907 -0.15067,0.161534 -0.29977,0.326175 -0.45043,0.493921 -0.15066,0.167747 -0.30132,0.338601 -0.45198,0.51256 -0.14911,0.175513 -0.29978,0.351026 -0.45044,0.529646 -0.15066,0.178619 -0.29977,0.360345 -0.45043,0.542071 -0.15066,0.180173 -0.30131,0.363451 -0.45043,0.546731 -0.15066,0.183279 -0.30132,0.366558 -0.45198,0.549838 -0.14911,0.183278 -0.29978,0.366557 -0.45044,0.548283 -0.15065,0.181725 -0.30131,0.361898 -0.45043,0.540517 -0.15066,0.17862 -0.30132,0.355687 -0.45198,0.529646 -0.14911,0.17396 -0.29977,0.344813 -0.45043,0.514113 -0.15066,0.167747 -0.29977,0.332388 -0.45043,0.492369 -0.15066,0.161534 -0.30133,0.318409 -0.45044,0.46907 -0.15066,0.152215 -0.30132,0.29977 -0.45198,0.441112 -0.150663,0.142896 -0.299765,0.279579 -0.450432,0.410048 -0.150659,0.13047 -0.301326,0.254728 -0.450428,0.372771 -0.150659,0.119598 -0.301326,0.231429 -0.451985,0.335495 -0.149111,0.105617 -0.299769,0.20347 -0.450437,0.29511 -0.150659,0.09009 -0.299769,0.17396 -0.450428,0.250067 -0.150659,0.0761 -0.301326,0.144449 -0.451985,0.205024 -0.14911,0.06058 -0.299769,0.111831 -0.450436,0.156875 -0.150659,0.04349 -0.299769,0.08077 -0.450428,0.108724 -0.150668,0.02796 -0.301327,0.0466 -0.450428,0.05747 -0.150668,0.01242 -0.301327,0.01397 -0.451994,0.0093 -0.149102,-0.0063 -0.299769,-0.02019 -0.450428,-0.04194 -0.150667,-0.0233 -0.301318,-0.05281 -0.450428,-0.09164 -0.150667,-0.03883 -0.301326,-0.08698 -0.451985,-0.141343 -0.14911,-0.05591 -0.299778,-0.118043 -0.450436,-0.189492 -0.150659,-0.06989 -0.29977,-0.149107 -0.450428,-0.234534 -0.150668,-0.08698 -0.301318,-0.180173 -0.450437,-0.281132 C 92.716168,56.97825 92.565509,56.871079 92.41485,56.756141 92.26574,56.642756 92.115073,56.521606 91.964414,56.395795 91.813755,56.268432 91.663096,56.13641 91.513977,55.998174 91.363319,55.859938 91.21266,55.715489 91.062001,55.56638 90.912891,55.417273 90.762232,55.265057 90.611573,55.106629 90.460905,54.948202 90.311795,54.786668 90.161136,54.620474 90.010477,54.45428 89.85981,54.28498 89.7107,54.112574 89.560041,53.94172 89.409382,53.766208 89.258723,53.589141 89.108056,53.412075 88.958954,53.231902 88.808287,53.051729 88.657628,52.870004 88.506961,52.688278 88.357859,52.504999 88.2072,52.32172 88.056533,52.138441 87.905874,51.955161 87.756763,51.771883 87.606105,51.588603 87.455437,51.406878 87.304778,51.223598 87.155668,51.041873 87.005009,50.863253 86.85435,50.683081 86.703683,50.504461 86.553024,50.328948 86.403914,50.153435 86.253255,49.979475 86.102588,49.810175 85.951929,49.639322 85.802819,49.473128 85.65216,49.308488 85.501492,49.1454 85.350833,48.986972 85.201732,48.831652 85.051064,48.67633 84.900405,48.525668 84.749738,48.38122 84.600636,48.235217 84.449969,48.095429 84.29931,47.960299 c -0.150667,-0.13513 -0.301318,-0.262493 -0.450428,-0.385197 -0.150667,-0.122703 -0.301326,-0.239194 -0.451985,-0.349472 -0.14911,-0.108725 -0.299778,-0.212791 -0.450437,-0.307537 -0.150658,-0.0963 -0.299769,-0.184831 -0.450428,-0.265599 -0.150667,-0.08077 -0.301317,-0.153768 -0.450436,-0.220556 -0.150659,-0.06523 -0.301318,-0.122704 -0.451977,-0.172407 -0.150667,-0.0497 -0.299777,-0.09164 -0.450436,-0.124256 -0.150659,-0.03417 -0.301318,-0.05903 -0.450437,-0.0761 -0.150658,-0.01709 -0.301317,-0.02485 -0.451976,-0.02485"
         id="path3033-7"
         style="fill:none;fill-opacity:1;stroke:url(#linearGradient5298);stroke-width:0.39960614;stroke-linecap:butt;stroke-linejoin:miter;stroke-miterlimit:4;stroke-dasharray:none;stroke-dashoffset:48.99999237;stroke-opacity:1"
         inkscape:connector-curvature="0" />
      <path
         d="m 173.12411,51.044188 c -0.15035,0 -0.3007,0.0078 -0.4509,0.02485 -0.15034,0.01709 -0.3007,0.04193 -0.4509,0.0761 -0.15034,0.03261 -0.3007,0.07456 -0.45089,0.124257 -0.15035,0.0497 -0.30055,0.107171 -0.4509,0.172407 -0.15035,0.06679 -0.30054,0.139789 -0.4509,0.220556 -0.15035,0.08077 -0.30054,0.1693 -0.4509,0.265599 -0.15034,0.09475 -0.30132,0.198811 -0.45043,0.307536 -0.15066,0.110278 -0.30132,0.226769 -0.45198,0.349473 -0.14911,0.122704 -0.29977,0.250067 -0.45044,0.385197 -0.15066,0.135129 -0.29976,0.274918 -0.45043,0.420921 -0.15065,0.144448 -0.30132,0.295109 -0.45042,0.45043 -0.15067,0.155322 -0.30133,0.31375 -0.45199,0.476837 -0.15066,0.164641 -0.29977,0.330835 -0.45044,0.501688 -0.15065,0.1693 -0.30131,0.34326 -0.45042,0.518772 -0.15067,0.175514 -0.30133,0.354134 -0.45199,0.534306 -0.14911,0.17862 -0.29977,0.360345 -0.45043,0.543624 -0.15066,0.181726 -0.29977,0.365005 -0.45043,0.548284 -0.15066,0.18328 -0.30132,0.366558 -0.45199,0.549838 -0.14911,0.183278 -0.29977,0.365004 -0.45043,0.546729 -0.15065,0.180173 -0.29977,0.360346 -0.45042,0.537412 -0.15067,0.177066 -0.30133,0.35258 -0.45044,0.523433 -0.15066,0.172406 -0.30133,0.341706 -0.45199,0.5079 -0.14911,0.166194 -0.29976,0.327728 -0.45042,0.486156 -0.15067,0.158427 -0.30133,0.310642 -0.45044,0.45975 -0.15066,0.149109 -0.30133,0.292005 -0.45199,0.431794 -0.1491,0.138235 -0.29976,0.270259 -0.45042,0.397622 -0.15067,0.12581 -0.29977,0.24696 -0.45044,0.360345 -0.15066,0.114938 -0.30133,0.222109 -0.45043,0.321515 -0.15066,0.100959 -0.30132,0.194152 -0.45198,0.281132 -0.15067,0.08543 -0.29977,0.16464 -0.45044,0.234534 -0.15066,0.07145 -0.30133,0.133577 -0.45043,0.189492 -0.15066,0.05436 -0.30132,0.102513 -0.45198,0.141343 -0.14911,0.03883 -0.29977,0.06834 -0.45044,0.09164 -0.15066,0.02174 -0.29976,0.03572 -0.45043,0.04193 -0.15066,0.0047 -0.30132,0.003 -0.45197,-0.0093 -0.14912,-0.01087 -0.29978,-0.02951 -0.45044,-0.05747 -0.15066,-0.02796 -0.29978,-0.06523 -0.45044,-0.108724 -0.15066,-0.04504 -0.30131,-0.0963 -0.45042,-0.156875 -0.15067,-0.06058 -0.30133,-0.128917 -0.45199,-0.205024 -0.14911,-0.0761 -0.29978,-0.159981 -0.45043,-0.250067 -0.15066,-0.09164 -0.29978,-0.189492 -0.45043,-0.29511 -0.15066,-0.104066 -0.30132,-0.215897 -0.45199,-0.335495 -0.14911,-0.118043 -0.29977,-0.2423 -0.45043,-0.37277 -0.15066,-0.13047 -0.29977,-0.267153 -0.45043,-0.410048 -0.15066,-0.141343 -0.30132,-0.288898 -0.45043,-0.441113 -0.15066,-0.150661 -0.30133,-0.307535 -0.45199,-0.46907 -0.14911,-0.15998 -0.29977,-0.324621 -0.45042,-0.492368 -0.15067,-0.169301 -0.30133,-0.340154 -0.45044,-0.514113 -0.15066,-0.17396 -0.30133,-0.351026 -0.45199,-0.529645 -0.1491,-0.178621 -0.29977,-0.358793 -0.45042,-0.540518 -0.15067,-0.181727 -0.29977,-0.365005 -0.45044,-0.548283 -0.15066,-0.18328 -0.30133,-0.366559 -0.45043,-0.549838 -0.15066,-0.18328 -0.30132,-0.366558 -0.45198,-0.546731 -0.15067,-0.181726 -0.29977,-0.363452 -0.45044,-0.542071 -0.15066,-0.17862 -0.30133,-0.354133 -0.45043,-0.529646 -0.15066,-0.173959 -0.30132,-0.344813 -0.45198,-0.51256 -0.14911,-0.167746 -0.29977,-0.332387 -0.45044,-0.493921 -0.15066,-0.159981 -0.29977,-0.316855 -0.45043,-0.46907 -0.15066,-0.152215 -0.30132,-0.29977 -0.45197,-0.441113 -0.14912,-0.141342 -0.29978,-0.278024 -0.45044,-0.408495 -0.15066,-0.130469 -0.29978,-0.256279 -0.45044,-0.374324 -0.15066,-0.118044 -0.30132,-0.229875 -0.45043,-0.335494 -0.15066,-0.105619 -0.30132,-0.203471 -0.45198,-0.293557 -0.14911,-0.09164 -0.29978,-0.175513 -0.45043,-0.25162 -0.15067,-0.07455 -0.30132,-0.142896 -0.45044,-0.203471 -0.15065,-0.06058 -0.30131,-0.113385 -0.45198,-0.156874 -0.14911,-0.04504 -0.29977,-0.08077 -0.45043,-0.108725 -0.15067,-0.02796 -0.29978,-0.04815 -0.45043,-0.05903 -0.15066,-0.01087 -0.30132,-0.01397 -0.45043,-0.0078 -0.15066,0.0047 -0.30133,0.01864 -0.45199,0.04194 -0.15067,0.02174 -0.29977,0.05281 -0.45043,0.09164 -0.15066,0.03883 -0.30132,0.08543 -0.45043,0.141343 -0.15066,0.05436 -0.30133,0.118044 -0.45199,0.187939 -0.1491,0.07145 -0.29977,0.149108 -0.45043,0.236088 -0.15066,0.08543 -0.29976,0.178619 -0.45043,0.279578 -0.15066,0.100959 -0.30133,0.20813 -0.45199,0.321515 -0.1491,0.114938 -0.29977,0.234536 -0.45042,0.361899 -0.15067,0.12581 -0.29977,0.259386 -0.45044,0.397621 -0.15066,0.138237 -0.30133,0.282685 -0.45043,0.430241 -0.15066,0.149108 -0.30133,0.302876 -0.45198,0.461304 -0.14911,0.156875 -0.29977,0.319962 -0.45044,0.484602 -0.15066,0.166194 -0.30132,0.335494 -0.45043,0.507901 -0.15066,0.172407 -0.30133,0.347919 -0.45198,0.524986 -0.14911,0.177066 -0.29977,0.355685 -0.45043,0.537411 -0.15066,0.180173 -0.29978,0.363451 -0.45044,0.545177 -0.15066,0.18328 -0.30132,0.366558 -0.45043,0.549838 -0.15066,0.183279 -0.30132,0.366558 -0.45198,0.549837 -0.15066,0.181725 -0.29978,0.363451 -0.45043,0.543623 -0.15067,0.17862 -0.30133,0.357239 -0.45044,0.532752 -0.15065,0.177067 -0.30131,0.349473 -0.45198,0.520326 -0.14911,0.1693 -0.29977,0.337048 -0.45043,0.500135 -0.15067,0.163087 -0.29978,0.323069 -0.45043,0.47839 -0.15066,0.153768 -0.30132,0.304429 -0.45199,0.450431 -0.1491,0.144449 -0.29977,0.285791 -0.45043,0.419368 -0.15067,0.135129 -0.29977,0.264046 -0.45043,0.38675 -0.15066,0.122702 -0.30132,0.239194 -0.45043,0.347919 -0.15066,0.110278 -0.30133,0.212789 -0.45199,0.309089 -0.1491,0.09475 -0.29977,0.183279 -0.45043,0.264046 -0.15066,0.08232 -0.30132,0.155322 -0.45043,0.220556 -0.15066,0.06524 -0.30133,0.124257 -0.45199,0.17396 -0.1491,0.0497 -0.29977,0.09009 -0.45043,0.124257 -0.15066,0.03261 -0.29976,0.05903 -0.45043,0.07455 -0.15066,0.01709 -0.30133,0.0264 -0.45043,0.0264 -0.15066,0 -0.30133,-0.0093 -0.45199,-0.0264 -0.15065,-0.01554 -0.29976,-0.04194 -0.45043,-0.07455 -0.15066,-0.03417 -0.30132,-0.07456 -0.45043,-0.124257 -0.15066,-0.0497 -0.30133,-0.108725 -0.45198,-0.17396 -0.14912,-0.06523 -0.29977,-0.138236 -0.45043,-0.220556 -0.15066,-0.08077 -0.29977,-0.1693 -0.45044,-0.264046 -0.15066,-0.0963 -0.30132,-0.198811 -0.45043,-0.309089 -0.15066,-0.108725 -0.30132,-0.225217 -0.45198,-0.347919 -0.15066,-0.122704 -0.29977,-0.251621 -0.45043,-0.38675 -0.15066,-0.133577 -0.30133,-0.274919 -0.45044,-0.419368 -0.15066,-0.146002 -0.30131,-0.296663 -0.45198,-0.450431 -0.14911,-0.155321 -0.29976,-0.315303 -0.45043,-0.47839 -0.15066,-0.163087 -0.29977,-0.330835 -0.45043,-0.500135 -0.15067,-0.170853 -0.30132,-0.343259 -0.45199,-0.520326 -0.1491,-0.175513 -0.29976,-0.354132 -0.45043,-0.532752 -0.15066,-0.180172 -0.29977,-0.361898 -0.45043,-0.543623 -0.15066,-0.183279 -0.30132,-0.366558 -0.45043,-0.549837 -0.15066,-0.18328 -0.30132,-0.366558 -0.45199,-0.549838 -0.1491,-0.181726 -0.29977,-0.365004 -0.45043,-0.545177 -0.15066,-0.181726 -0.30132,-0.360345 -0.45043,-0.537411 -0.15066,-0.177067 -0.30132,-0.352579 -0.45199,-0.524986 -0.1491,-0.172407 -0.29977,-0.341707 -0.45043,-0.507901 -0.15066,-0.16464 -0.29977,-0.327727 -0.45042,-0.484602 -0.15067,-0.158428 -0.30133,-0.312196 -0.45044,-0.461304 -0.15066,-0.147556 -0.30133,-0.292004 -0.45199,-0.430241 -0.15066,-0.138235 -0.29977,-0.271811 -0.45042,-0.397621 -0.15067,-0.127363 -0.30132,-0.246961 -0.45044,-0.361899 -0.15066,-0.113385 -0.30132,-0.220556 -0.45198,-0.321515 -0.14911,-0.100959 -0.29978,-0.194152 -0.45043,-0.279578 -0.15066,-0.08698 -0.29977,-0.164641 -0.45044,-0.236088 -0.15066,-0.06989 -0.30132,-0.133577 -0.45198,-0.187939 -0.14911,-0.05591 -0.29977,-0.102512 -0.45043,-0.141343 -0.15066,-0.03883 -0.29977,-0.06989 -0.45043,-0.09164 -0.15066,-0.0233 -0.30133,-0.03728 -0.45044,-0.04194 -0.15066,-0.0063 -0.30132,-0.003 -0.45197,0.0078 -0.14912,0.01087 -0.29977,0.03107 -0.45044,0.05903 -0.15066,0.02796 -0.30133,0.06368 -0.45043,0.108725 -0.15066,0.04349 -0.30133,0.0963 -0.45198,0.156874 -0.14911,0.06058 -0.29977,0.128916 -0.45044,0.203471 -0.15066,0.0761 -0.29977,0.159981 -0.45043,0.25162 -0.15066,0.09009 -0.30132,0.187938 -0.45043,0.293557 -0.15066,0.105619 -0.30132,0.21745 -0.45199,0.335494 -0.15066,0.118045 -0.29977,0.243855 -0.45043,0.374324 -0.15067,0.130471 -0.30132,0.267153 -0.45043,0.408495 -0.15066,0.141343 -0.30132,0.288898 -0.45199,0.441113 -0.1491,0.152215 -0.29977,0.309089 -0.45043,0.46907 -0.15067,0.161534 -0.29977,0.326175 -0.45043,0.493921 -0.15066,0.167747 -0.30132,0.338601 -0.45198,0.51256 -0.14911,0.175513 -0.29978,0.351026 -0.45044,0.529646 -0.15066,0.178619 -0.29977,0.360345 -0.45043,0.542071 -0.15066,0.180173 -0.30131,0.363451 -0.45043,0.546731 -0.15066,0.183279 -0.30132,0.366558 -0.45198,0.549838 -0.14911,0.183278 -0.29978,0.366556 -0.45044,0.548283 -0.15065,0.181725 -0.30131,0.361897 -0.45043,0.540518 -0.15066,0.178619 -0.30132,0.355685 -0.45198,0.529645 -0.14911,0.173959 -0.29977,0.344812 -0.45043,0.514113 -0.15066,0.167747 -0.29977,0.332388 -0.45043,0.492368 -0.15066,0.161535 -0.30133,0.318409 -0.45044,0.46907 -0.15066,0.152215 -0.30132,0.29977 -0.45198,0.441113 -0.150663,0.142895 -0.299765,0.279578 -0.450432,0.410048 -0.150659,0.13047 -0.301326,0.254727 -0.450428,0.37277 -0.150659,0.119598 -0.301326,0.231429 -0.451985,0.335495 -0.149111,0.105618 -0.299769,0.20347 -0.450437,0.29511 -0.150659,0.09009 -0.299769,0.17396 -0.450428,0.250067 -0.150659,0.0761 -0.301326,0.144449 -0.451985,0.205024 -0.14911,0.06058 -0.299769,0.111831 -0.450436,0.156875 -0.150659,0.04349 -0.299769,0.08077 -0.450428,0.108724 -0.150668,0.02796 -0.301327,0.0466 -0.450428,0.05747 -0.150668,0.01242 -0.301327,0.01398 -0.451994,0.0093 -0.149102,-0.0063 -0.299769,-0.02019 -0.450428,-0.04193 -0.150667,-0.0233 -0.301318,-0.05281 -0.450428,-0.09164 -0.150667,-0.03883 -0.301326,-0.08698 -0.451985,-0.141343 -0.14911,-0.05591 -0.299778,-0.118043 -0.450436,-0.189492 -0.150659,-0.06989 -0.29977,-0.149107 -0.450428,-0.234534 C 93.166596,62.28167 93.015946,62.188477 92.866827,62.087518 92.716168,61.988112 92.565509,61.880941 92.41485,61.766003 92.26574,61.652618 92.115073,61.531468 91.964414,61.405658 91.813755,61.278295 91.663096,61.146271 91.513977,61.008036 91.363319,60.8698 91.21266,60.725351 91.062001,60.576242 90.912891,60.427134 90.762232,60.274919 90.611573,60.116492 90.460905,59.958064 90.311795,59.79653 90.161136,59.630336 90.010477,59.464142 89.85981,59.294842 89.7107,59.122436 89.560041,58.951583 89.409382,58.776069 89.258723,58.599003 89.108056,58.421937 88.958954,58.241764 88.808287,58.061591 88.657628,57.879866 88.506961,57.69814 88.357859,57.514862 88.2072,57.331582 88.056533,57.148304 87.905874,56.965024 87.756763,56.781745 87.606105,56.598466 87.455437,56.41674 87.304778,56.233461 87.155668,56.051736 87.005009,55.873116 86.85435,55.692944 86.703683,55.514324 86.553024,55.33881 86.403914,55.163298 86.253255,54.989338 86.102588,54.820038 85.951929,54.649185 85.802819,54.482991 85.65216,54.31835 85.501492,54.155263 85.350833,53.996835 85.201732,53.841513 85.051064,53.686192 84.900405,53.535531 84.749738,53.391083 84.600636,53.24508 84.449969,53.105291 84.29931,52.970162 c -0.150667,-0.13513 -0.301318,-0.262493 -0.450428,-0.385197 -0.150667,-0.122704 -0.301326,-0.239195 -0.451985,-0.349473 -0.14911,-0.108725 -0.299778,-0.21279 -0.450437,-0.307536 -0.150658,-0.0963 -0.299769,-0.184832 -0.450428,-0.265599 -0.150667,-0.08077 -0.301317,-0.153768 -0.450436,-0.220556 -0.150659,-0.06523 -0.301318,-0.122704 -0.451977,-0.172407 -0.150667,-0.0497 -0.299777,-0.09164 -0.450436,-0.124257 -0.150659,-0.03417 -0.301318,-0.05903 -0.450437,-0.0761 -0.150658,-0.01709 -0.301317,-0.02485 -0.451976,-0.02485"
         id="path3033-5"
         style="fill:none;fill-opacity:1;stroke:url(#linearGradient5306);stroke-width:0.39960614;stroke-linecap:butt;stroke-linejoin:miter;stroke-miterlimit:4;stroke-dasharray:none;stroke-dashoffset:48.99999237;stroke-opacity:1"
         inkscape:connector-curvature="0" />
      <path
         d="m 173.12411,56.054052 c -0.15035,0 -0.3007,0.0078 -0.4509,0.02485 -0.15034,0.01709 -0.3007,0.04194 -0.4509,0.0761 -0.15034,0.03261 -0.3007,0.07455 -0.45089,0.124256 -0.15035,0.0497 -0.30055,0.107172 -0.4509,0.172407 -0.15035,0.06679 -0.30054,0.139789 -0.4509,0.220556 -0.15035,0.08077 -0.30054,0.169301 -0.4509,0.265599 -0.15034,0.09475 -0.30132,0.198811 -0.45043,0.307536 -0.15066,0.110279 -0.30132,0.22677 -0.45198,0.349474 -0.14911,0.122703 -0.29977,0.250066 -0.45044,0.385196 -0.15066,0.13513 -0.29976,0.274918 -0.45043,0.420921 -0.15065,0.144448 -0.30132,0.29511 -0.45042,0.450431 -0.15067,0.155322 -0.30133,0.313749 -0.45199,0.476837 -0.15066,0.16464 -0.29977,0.330834 -0.45044,0.501687 -0.15065,0.1693 -0.30131,0.34326 -0.45042,0.518773 -0.15067,0.175513 -0.30133,0.354132 -0.45199,0.534305 -0.14911,0.178619 -0.29977,0.360345 -0.45043,0.543624 -0.15066,0.181726 -0.29977,0.365005 -0.45043,0.548285 -0.15066,0.183279 -0.30132,0.366558 -0.45199,0.549836 -0.14911,0.18328 -0.29977,0.365006 -0.45043,0.546731 -0.15065,0.180172 -0.29977,0.360346 -0.45042,0.537412 -0.15067,0.177066 -0.30133,0.352579 -0.45044,0.523432 -0.15066,0.172406 -0.30133,0.341707 -0.45199,0.507901 -0.14911,0.166194 -0.29976,0.327728 -0.45042,0.486155 -0.15067,0.158428 -0.30133,0.310643 -0.45044,0.459751 -0.15066,0.149108 -0.30133,0.292004 -0.45199,0.431793 -0.1491,0.138237 -0.29976,0.270259 -0.45042,0.397623 -0.15067,0.12581 -0.29977,0.24696 -0.45044,0.360344 -0.15066,0.114939 -0.30133,0.22211 -0.45043,0.321516 -0.15066,0.100958 -0.30132,0.194151 -0.45198,0.281132 -0.15067,0.08543 -0.29977,0.16464 -0.45044,0.234534 -0.15066,0.07145 -0.30133,0.133577 -0.45043,0.189492 -0.15066,0.05436 -0.30132,0.102512 -0.45198,0.141343 -0.14911,0.03883 -0.29977,0.06834 -0.45044,0.09164 -0.15066,0.02174 -0.29976,0.03572 -0.45043,0.04193 -0.15066,0.0047 -0.30132,0.003 -0.45197,-0.0093 -0.14912,-0.01087 -0.29978,-0.02951 -0.45044,-0.05747 -0.15066,-0.02796 -0.29978,-0.06523 -0.45044,-0.108725 -0.15066,-0.04504 -0.30131,-0.0963 -0.45042,-0.156874 -0.15067,-0.06058 -0.30133,-0.128917 -0.45199,-0.205024 -0.14911,-0.0761 -0.29978,-0.159982 -0.45043,-0.250067 -0.15066,-0.09164 -0.29978,-0.189493 -0.45043,-0.295112 -0.15066,-0.104064 -0.30132,-0.215896 -0.45199,-0.335493 -0.14911,-0.118045 -0.29977,-0.242301 -0.45043,-0.372772 -0.15066,-0.130469 -0.29977,-0.267152 -0.45043,-0.410047 -0.15066,-0.141342 -0.30132,-0.288897 -0.45043,-0.441112 -0.15066,-0.150663 -0.30133,-0.307536 -0.45199,-0.469071 -0.14911,-0.159981 -0.29977,-0.324622 -0.45042,-0.492368 -0.15067,-0.1693 -0.30133,-0.340154 -0.45044,-0.514114 -0.15066,-0.173959 -0.30133,-0.351025 -0.45199,-0.529645 -0.1491,-0.178619 -0.29977,-0.358792 -0.45042,-0.540518 -0.15067,-0.181726 -0.29977,-0.365004 -0.45044,-0.548284 -0.15066,-0.183278 -0.30133,-0.366558 -0.45043,-0.549837 -0.15066,-0.183279 -0.30132,-0.366558 -0.45198,-0.546731 -0.15067,-0.181725 -0.29977,-0.363452 -0.45044,-0.542071 -0.15066,-0.178619 -0.30133,-0.354133 -0.45043,-0.529645 -0.15066,-0.17396 -0.30132,-0.344814 -0.45198,-0.51256 -0.14911,-0.167748 -0.29977,-0.332388 -0.45044,-0.493922 -0.15066,-0.159981 -0.29977,-0.316855 -0.45043,-0.46907 -0.15066,-0.152215 -0.30132,-0.29977 -0.45197,-0.441112 -0.14912,-0.141343 -0.29978,-0.278025 -0.45044,-0.408495 -0.15066,-0.13047 -0.29978,-0.25628 -0.45044,-0.374325 -0.15066,-0.118044 -0.30132,-0.229875 -0.45043,-0.335493 -0.15066,-0.105619 -0.30132,-0.203472 -0.45198,-0.293557 -0.14911,-0.09164 -0.29978,-0.175514 -0.45043,-0.251621 -0.15067,-0.07456 -0.30132,-0.142895 -0.45044,-0.203471 -0.15065,-0.06058 -0.30131,-0.113385 -0.45198,-0.156874 -0.14911,-0.04504 -0.29977,-0.08077 -0.45043,-0.108725 -0.15067,-0.02796 -0.29978,-0.04815 -0.45043,-0.05903 -0.15066,-0.01088 -0.30132,-0.01398 -0.45043,-0.0078 -0.15066,0.0047 -0.30133,0.01864 -0.45199,0.04193 -0.15067,0.02174 -0.29977,0.05281 -0.45043,0.09164 -0.15066,0.03883 -0.30132,0.08543 -0.45043,0.141343 -0.15066,0.05436 -0.30133,0.118044 -0.45199,0.187939 -0.1491,0.07145 -0.29977,0.149107 -0.45043,0.236088 -0.15066,0.08543 -0.29976,0.178618 -0.45043,0.279578 -0.15066,0.100959 -0.30133,0.20813 -0.45199,0.321514 -0.1491,0.114939 -0.29977,0.234536 -0.45042,0.361899 -0.15067,0.12581 -0.29977,0.259387 -0.45044,0.397622 -0.15066,0.138236 -0.30133,0.282685 -0.45043,0.430241 -0.15066,0.149108 -0.30133,0.302876 -0.45198,0.461303 -0.14911,0.156875 -0.29977,0.319963 -0.45044,0.484603 -0.15066,0.166194 -0.30132,0.335493 -0.45043,0.5079 -0.15066,0.172407 -0.30133,0.347919 -0.45198,0.524987 -0.14911,0.177066 -0.29977,0.355684 -0.45043,0.537411 -0.15066,0.180172 -0.29978,0.363451 -0.45044,0.545177 -0.15066,0.183279 -0.30132,0.366558 -0.45043,0.549838 -0.15066,0.183278 -0.30132,0.366558 -0.45198,0.549837 -0.15066,0.181726 -0.29978,0.363451 -0.45043,0.543624 -0.15067,0.178619 -0.30133,0.357239 -0.45044,0.532752 -0.15065,0.177066 -0.30131,0.349473 -0.45198,0.520326 -0.14911,0.1693 -0.29977,0.337047 -0.45043,0.500134 -0.15067,0.163087 -0.29978,0.323069 -0.45043,0.47839 -0.15066,0.153768 -0.30132,0.30443 -0.45199,0.450432 -0.1491,0.144448 -0.29977,0.28579 -0.45043,0.419367 -0.15067,0.135129 -0.29977,0.264046 -0.45043,0.38675 -0.15066,0.122703 -0.30132,0.239194 -0.45043,0.347919 -0.15066,0.110278 -0.30133,0.21279 -0.45199,0.30909 -0.1491,0.09475 -0.29977,0.183278 -0.45043,0.264046 -0.15066,0.08232 -0.30132,0.155321 -0.45043,0.220556 -0.15066,0.06523 -0.30133,0.124257 -0.45199,0.17396 -0.1491,0.0497 -0.29977,0.09008 -0.45043,0.124256 -0.15066,0.03262 -0.29976,0.05903 -0.45043,0.07456 -0.15066,0.01709 -0.30133,0.0264 -0.45043,0.0264 -0.15066,0 -0.30133,-0.0093 -0.45199,-0.0264 -0.15065,-0.01554 -0.29976,-0.04193 -0.45043,-0.07456 -0.15066,-0.03417 -0.30132,-0.07455 -0.45043,-0.124256 -0.15066,-0.0497 -0.30133,-0.108725 -0.45198,-0.17396 -0.14912,-0.06523 -0.29977,-0.138236 -0.45043,-0.220556 -0.15066,-0.08077 -0.29977,-0.1693 -0.45044,-0.264046 -0.15066,-0.0963 -0.30132,-0.198812 -0.45043,-0.30909 -0.15066,-0.108725 -0.30132,-0.225216 -0.45198,-0.347919 -0.15066,-0.122704 -0.29977,-0.251621 -0.45043,-0.38675 -0.15066,-0.133577 -0.30133,-0.274919 -0.45044,-0.419367 -0.15066,-0.146002 -0.30131,-0.296664 -0.45198,-0.450432 -0.14911,-0.155321 -0.29976,-0.315303 -0.45043,-0.47839 -0.15066,-0.163087 -0.29977,-0.330834 -0.45043,-0.500134 -0.15067,-0.170853 -0.30132,-0.34326 -0.45199,-0.520326 -0.1491,-0.175513 -0.29976,-0.354133 -0.45043,-0.532752 -0.15066,-0.180173 -0.29977,-0.361898 -0.45043,-0.543624 -0.15066,-0.183279 -0.30132,-0.366559 -0.45043,-0.549837 -0.15066,-0.18328 -0.30132,-0.366559 -0.45199,-0.549838 -0.1491,-0.181726 -0.29977,-0.365005 -0.45043,-0.545177 -0.15066,-0.181727 -0.30132,-0.360345 -0.45043,-0.537411 -0.15066,-0.177068 -0.30132,-0.35258 -0.45199,-0.524987 -0.1491,-0.172407 -0.29977,-0.341706 -0.45043,-0.5079 -0.15066,-0.16464 -0.29977,-0.327728 -0.45042,-0.484603 -0.15067,-0.158427 -0.30133,-0.312195 -0.45044,-0.461303 -0.15066,-0.147556 -0.30133,-0.292005 -0.45199,-0.430241 -0.15066,-0.138235 -0.29977,-0.271812 -0.45042,-0.397622 -0.15067,-0.127363 -0.30132,-0.24696 -0.45044,-0.361899 -0.15066,-0.113384 -0.30132,-0.220555 -0.45198,-0.321514 -0.14911,-0.10096 -0.29978,-0.194152 -0.45043,-0.279578 -0.15066,-0.08698 -0.29977,-0.164641 -0.45044,-0.236088 -0.15066,-0.06989 -0.30132,-0.133577 -0.45198,-0.187939 -0.14911,-0.05591 -0.29977,-0.102512 -0.45043,-0.141343 -0.15066,-0.03883 -0.29977,-0.06989 -0.45043,-0.09164 -0.15066,-0.0233 -0.30133,-0.03728 -0.45044,-0.04193 -0.15066,-0.0063 -0.30132,-0.003 -0.45197,0.0078 -0.14912,0.01087 -0.29977,0.03107 -0.45044,0.05903 -0.15066,0.02796 -0.30133,0.06368 -0.45043,0.108725 -0.15066,0.04349 -0.30133,0.0963 -0.45198,0.156874 -0.14911,0.06058 -0.29977,0.128917 -0.45044,0.203471 -0.15066,0.0761 -0.29977,0.159981 -0.45043,0.251621 -0.15066,0.09009 -0.30132,0.187938 -0.45043,0.293557 -0.15066,0.105618 -0.30132,0.217449 -0.45199,0.335493 -0.15066,0.118045 -0.29977,0.243855 -0.45043,0.374325 -0.15067,0.13047 -0.30132,0.267152 -0.45043,0.408495 -0.15066,0.141342 -0.30132,0.288897 -0.45199,0.441112 -0.1491,0.152215 -0.29977,0.309089 -0.45043,0.46907 -0.15067,0.161534 -0.29977,0.326174 -0.45043,0.493922 -0.15066,0.167746 -0.30132,0.3386 -0.45198,0.51256 -0.14911,0.175512 -0.29978,0.351026 -0.45044,0.529645 -0.15066,0.178619 -0.29977,0.360346 -0.45043,0.542071 -0.15066,0.180173 -0.30131,0.363452 -0.45043,0.546731 -0.15066,0.183279 -0.30132,0.366559 -0.45198,0.549837 -0.14911,0.18328 -0.29978,0.366558 -0.45044,0.548284 -0.15065,0.181726 -0.30131,0.361899 -0.45043,0.540518 -0.15066,0.17862 -0.30132,0.355686 -0.45198,0.529645 -0.14911,0.17396 -0.29977,0.344814 -0.45043,0.514114 -0.15066,0.167746 -0.29977,0.332387 -0.45043,0.492368 -0.15066,0.161535 -0.30133,0.318408 -0.45044,0.469071 -0.15066,0.152215 -0.30132,0.29977 -0.45198,0.441112 -0.150663,0.142895 -0.299765,0.279578 -0.450432,0.410047 -0.150659,0.130471 -0.301326,0.254727 -0.450428,0.372772 -0.150659,0.119597 -0.301326,0.231429 -0.451985,0.335493 -0.149111,0.105619 -0.299769,0.203472 -0.450437,0.295112 -0.150659,0.09009 -0.299769,0.173959 -0.450428,0.250067 -0.150659,0.0761 -0.301326,0.144448 -0.451985,0.205024 -0.14911,0.06058 -0.299769,0.111831 -0.450436,0.156874 -0.150659,0.04349 -0.299769,0.08077 -0.450428,0.108725 -0.150668,0.02796 -0.301327,0.0466 -0.450428,0.05747 -0.150668,0.01242 -0.301327,0.01398 -0.451994,0.0093 -0.149102,-0.0063 -0.299769,-0.02019 -0.450428,-0.04193 -0.150667,-0.0233 -0.301318,-0.05281 -0.450428,-0.09164 -0.150667,-0.03883 -0.301326,-0.08698 -0.451985,-0.141343 -0.14911,-0.05591 -0.299778,-0.118044 -0.450436,-0.189492 -0.150659,-0.06989 -0.29977,-0.149108 -0.450428,-0.234534 -0.150668,-0.08698 -0.301318,-0.180174 -0.450437,-0.281132 C 92.716168,66.997977 92.565509,66.890806 92.41485,66.775867 92.26574,66.662483 92.115073,66.541333 91.964414,66.415523 91.813755,66.288159 91.663096,66.156137 91.513977,66.0179 91.363319,65.879664 91.21266,65.735215 91.062001,65.586107 90.912891,65.436999 90.762232,65.284784 90.611573,65.126356 90.460905,64.967929 90.311795,64.806395 90.161136,64.640201 90.010477,64.474007 89.85981,64.304706 89.7107,64.1323 89.560041,63.961447 89.409382,63.785934 89.258723,63.608868 89.108056,63.431802 88.958954,63.251628 88.808287,63.071456 88.657628,62.889731 88.506961,62.708005 88.357859,62.524725 88.2072,62.341447 88.056533,62.158168 87.905874,61.974889 87.756763,61.791609 87.606105,61.60833 87.455437,61.426604 87.304778,61.243325 87.155668,61.061599 87.005009,60.88298 86.85435,60.702807 86.703683,60.524188 86.553024,60.348675 86.403914,60.173162 86.253255,59.999202 86.102588,59.829902 85.951929,59.659049 85.802819,59.492855 85.65216,59.328215 85.501492,59.165127 85.350833,59.0067 85.201732,58.851378 85.051064,58.696057 84.900405,58.545395 84.749738,58.400947 84.600636,58.254944 84.449969,58.115156 84.29931,57.980026 c -0.150667,-0.13513 -0.301318,-0.262493 -0.450428,-0.385196 -0.150667,-0.122704 -0.301326,-0.239195 -0.451985,-0.349474 -0.14911,-0.108725 -0.299778,-0.21279 -0.450437,-0.307536 -0.150658,-0.0963 -0.299769,-0.184832 -0.450428,-0.265599 -0.150667,-0.08077 -0.301317,-0.153768 -0.450436,-0.220556 -0.150659,-0.06524 -0.301318,-0.122703 -0.451977,-0.172407 -0.150667,-0.0497 -0.299777,-0.09164 -0.450436,-0.124256 -0.150659,-0.03417 -0.301318,-0.05903 -0.450437,-0.0761 -0.150658,-0.01709 -0.301317,-0.02485 -0.451976,-0.02485"
         id="path3033-35"
         style="fill:none;fill-opacity:1;stroke:url(#linearGradient5314);stroke-width:0.39960614;stroke-linecap:butt;stroke-linejoin:miter;stroke-miterlimit:4;stroke-dasharray:none;stroke-dashoffset:48.99999237;stroke-opacity:1"
         inkscape:connector-curvature="0" />
    </g>
    <rect
       style="fill:#ff001f;fill-opacity:0.6096201;stroke:#0b001f;stroke-width:0.37843454;stroke-miterlimit:4;stroke-dasharray:none;stroke-opacity:1"
       id="rect5354"
       width="2.2981677"
       height="6.9425035"
       x="29.438349"
       y="25.662024"
       transform="rotate(33.556741)"
       inkscape:transform-center-x="26.069828"
       inkscape:transform-center-y="-7.2207869" />
    <rect
       style="fill:#4d8741;fill-opacity:0.99607843;stroke:#0b001f;stroke-width:0.37843454;stroke-miterlimit:4;stroke-dasharray:none;stroke-opacity:1"
       id="rect5354-6"
       width="2.2981677"
       height="6.9425035"
       x="31.075155"
       y="-22.831833"
       transform="rotate(65.089626)"
       inkscape:transform-center-x="18.443971"
       inkscape:transform-center-y="-19.788772" />
    <rect
       style="fill:#3b00ff;fill-opacity:0.98431373;stroke:#0b001f;stroke-width:0.37843454;stroke-miterlimit:4;stroke-dasharray:none;stroke-opacity:1"
       id="rect5354-6-2"
       width="2.2981677"
       height="6.9425035"
       x="9.9731264"
       y="-55.96627"
       transform="rotate(96.746432)"
       inkscape:transform-center-x="5.3139144"
       inkscape:transform-center-y="-26.524296" />
    <rect
       style="fill:#280082;fill-opacity:0.96470588;stroke:#0b001f;stroke-width:0.37843454;stroke-miterlimit:4;stroke-dasharray:none;stroke-opacity:1"
       id="rect5354-6-2-9"
       width="2.2981677"
       height="6.9425035"
       x="-8.1205235"
       y="-66.323837"
       transform="rotate(114.4597)"
       inkscape:transform-center-x="-3.0081346"
       inkscape:transform-center-y="-26.883581" />
    <rect
       style="fill:#2ced30;fill-opacity:0.98431373;stroke:#0b001f;stroke-width:0.37843454;stroke-miterlimit:4;stroke-dasharray:none;stroke-opacity:1"
       id="rect5354-6-2-1"
       width="2.2981677"
       height="6.9425035"
       x="26.124969"
       y="-38.313435"
       transform="rotate(75.694074)"
       inkscape:transform-center-x="14.487294"
       inkscape:transform-center-y="-22.845003" />
    <rect
       style="fill:#111a1a;fill-opacity:0.90588235;stroke:#0b001f;stroke-width:0.37843454;stroke-miterlimit:4;stroke-dasharray:none;stroke-opacity:1"
       id="rect5354-6-2-9-2"
       width="2.2981677"
       height="6.9425035"
       x="-54.132919"
       y="-85.72789"
       transform="rotate(150.03367)"
       inkscape:transform-center-x="-18.086327"
       inkscape:transform-center-y="-20.116177" />
    <path
       style="fill:none;stroke:#000000;stroke-width:0.82151651px;stroke-linecap:butt;stroke-linejoin:miter;stroke-opacity:1"
       d="m 38.377172,71.258782 c -2.174062,-5.248572 6.33081,-12.081313 12.011829,-12.090595 5.736684,-0.0094 14.373326,6.872931 12.16936,12.16936 -3.09672,7.441842 -21.096553,7.368093 -24.181189,-0.07877 z"
       id="path885"
       inkscape:connector-curvature="0"
       sodipodi:nodetypes="ssss" />
  </g>
</svg>
