{
"fs": 1000.0,
"units": "mV",
"eog_template": [
[
-0.0
],
[
-1.0328056642732674e-07
],
[
-4.371778271550835e-07
],
[
-1.033962145083031e-06
],
[
-1.919936264032288e-06
],
[
-3.114439191835497e-06
],
[
-4.629009139802914e-06
],
[
-6.466736313228509e-06
],
[
-8.621832100607587e-06
],
[
-1.1079436062783655e-05
],
[
-1.381567616567344e-05
],
[
-1.679799104088892e-05
],
[
-1.9985715862839756e-05
],
[
-2.3330925933707673e-05
],
[
-2.67795245565022e-05
],
[
-3.0272554553417233e-05
],
[
-3.374770611529932e-05
],
[
-3.7140987718198043e-05
],
[
-4.038852167433637e-05
],
[
-4.342842149199512e-05
],
[
-4.62027046126338e-05
],
[
-4.865919136285616e-05
],
[
-5.075333927387642e-05
],
[
-5.244996148101986e-05
],
[
-5.372477887485072e-05
],
[
-5.4565758107380065e-05
],
[
-5.4974191480935273e-05
],
[
-5.496548014539445e-05
],
[
-5.456958878650624e-05
],
[
-5.383114784234878e-05
],
[
-5.280918788651962e-05
],
[
-5.15764998363394e-05
],
[
-5.021862384848306e-05
],
[
-4.8832479035773596e-05
],
[
-4.752465542359004e-05
],
[
-4.6409398759697024e-05
],
[
-4.560632767361461e-05
],
[
-4.52379309321203e-05
],
[
-4.54268998234962e-05
],
[
-4.629335676388242e-05
],
[
-4.7952045914025644e-05
],
[
-5.0509554851671675e-05
],
[
-5.406163800365788e-05
],
[
-5.86907122500616e-05
],
[
-6.446359245849978e-05
],
[
-7.142952952147578e-05
],
[
-7.961860601567473e-05
],
[
-8.904053546992468e-05
],
[
-9.96839010437485e-05
],
[
-0.00011151585856779914
],
[
-0.0001244823174397789
],
[
-0.00013850860070357341
],
[
-0.00015350057283769342
],
[
-0.00016934621083041106
],
[
-0.00018591758192662526
],
[
-0.00020307318114005796
],
[
-0.0002206605742804067
],
[
-0.00023851928825746656
],
[
-0.0002564838891917048
],
[
-0.0002743871890673247
],
[
-0.00029206352206381965
],
[
-0.0003093520316425439
],
[
-0.0003260999088088226
],
[
-0.0003421655208552914
],
[
-0.0003574213687743691
],
[
-0.00037175681131978923
],
[
-0.0003850804955967761
],
[
-0.0003973224390963081
],
[
-0.0004084357166560421
],
[
-0.0004183977173317775
],
[
-0.00042721094892148953
],
[
-0.0004349033796391636
],
[
-0.00044152831540142113
],
[
-0.00044716381702957316
],
[
-0.0004519116655968247
],
[
-0.00045589588795433343
],
[
-0.0004592608591762409
],
[
-0.00046216900382890867
],
[
-0.0004647981221817559
],
[
-0.00046733836991854716
],
[
-0.0004699889216370895
],
[
-0.0004729543515799529
],
[
-0.0004764407704347021
],
[
-0.0004806517631985672
],
[
-0.00048578417812832357
],
[
-0.0004920238206643996
],
[
-0.0004995411105184874
],
[
-0.0005084867658599724
],
[
-0.0005189875848937521
],
[
-0.000531142400147955
],
[
-0.0005450182827727688
],
[
-0.0005606470724492964
],
[
-0.0005780223039387997
],
[
-0.000597096595812139
],
[
-0.0006177795623341806
],
[
-0.0006399363065472117
],
[
-0.0006633865509721492
],
[
-0.0006879044613240232
],
[
-0.0007132192173039264
],
[
-0.0007390163814496434
],
[
-0.0007649401102987504
],
[
-0.0007905962399445244
],
[
-0.0008155562593016624
],
[
-0.0008393621590136343
],
[
-0.0008615321135493836
],
[
-0.0008815669217556236
],
[
-0.0008989571002039602
],
[
-0.0009131904964245671
],
[
-0.0009237602671475983
],
[
-0.0009301730513847448
],
[
-0.0009319571608194415
],
[
-0.0009286706112221117
],
[
-0.0009199088276705788
],
[
-0.000905311870158215
],
[
-0.0008845710405162932
],
[
-0.0008574347441770924
],
[
-0.0008237134924682707
],
[
-0.0007832839460168454
],
[
-0.0007360919195360989
],
[
-0.0006821542926947927
],
[
-0.000621559799308838
],
[
-0.0005544686953662347
],
[
-0.0004811113330584118
],
[
-0.0004017856917483916
],
[
-0.0003168539374595469
],
[
-0.00022673809964258282
],
[
-0.00013191496634877168
],
[
-3.29103052744891e-05
],
[
6.970748137252402e-05
],
[
0.00017533416429493608
],
[
0.00028333686032820345
],
[
0.0003930614848966938
],
[
0.0005038404080980766
],
[
0.000615000247919547
],
[
0.0007258697379838862
],
[
0.0008357876041508882
],
[
0.0009441103753890143
],
[
0.0010502200427815363
],
[
0.001153531469257735
],
[
0.001253499442730705
],
[
0.00134962525711547
],
[
0.0014414627008165896
],
[
0.0015286233336330613
],
[
0.001610780943114299
],
[
0.001687675090911399
],
[
0.0017591136868083895
],
[
0.0018249745583607622
],
[
0.0018852060115393092
],
[
0.0019398263984713219
],
[
0.001988922722830907
],
[
0.002032648326102225
],
[
0.0020712197132329246
],
[
0.0021049125948080067
],
[
0.0021340572420225686
],
[
0.002159033267483174
],
[
0.0021802639582908312
],
[
0.002198210297997739
],
[
0.002213364820017366
],
[
0.002226245434935464
],
[
0.002237389366406107
],
[
0.0022473473157128155
],
[
0.002256677956833987
],
[
0.0022659428449158625
],
[
0.0022757018011324544
],
[
0.0022865088132269715
],
[
0.0022989084624556095
],
[
0.002313432857397081
],
[
0.0023305990291308627
],
[
0.0023509067256473723
],
[
0.002374836537799318
],
[
0.002402848293913559
],
[
0.0024353796743676903
],
[
0.002472845020154378
],
[
0.002515634338310809
],
[
0.0025641125375785476
],
[
0.0026186189550337613
],
[
0.0026794672551681774
],
[
0.0027469457941513772
],
[
0.0028213185409481866
],
[
0.0029028266321662484
],
[
0.002991690611625651
],
[
0.0030881133765343098
],
[
0.0031922838294693666
],
[
0.003304381224225181
],
[
0.003424580191488307
],
[
0.00355305643023685
],
[
0.003689993046507723
],
[
0.003835587509788996
],
[
0.003990059178590923
],
[
0.004153657321865374
],
[
0.004326669533518631
],
[
0.004509430405870357
],
[
0.004702330298692912
],
[
0.004905824017648316
],
[
0.00512043920055362
],
[
0.005346784198741854
],
[
0.005585555229972333
],
[
0.005837542568999482
],
[
0.006103635536765621
],
[
0.0063848260549846615
],
[
0.006682210552487715
],
[
0.006997421668807886
],
[
0.007332277239332437
],
[
0.007688315000712716
],
[
0.008067182278763721
],
[
0.008470629820803098
],
[
0.00890050361435805
],
[
0.009358734693023972
],
[
0.00984732695270047
],
[
0.010368343024243866
],
[
0.010923888273734804
],
[
0.011516093029694153
],
[
0.012147093165740608
],
[
0.012819009195233577
],
[
0.01353392406173367
],
[
0.014293859837578405
],
[
0.015100753573665174
],
[
0.015956432576384218
],
[
0.016862589420826937
],
[
0.01782075703894467
],
[
0.018832284241474477
],
[
0.01989831203822434
],
[
0.02101975111087758
],
[
0.022197260767377963
],
[
0.023431229671139787
],
[
0.024721758596442194
],
[
0.026068645417132396
],
[
0.02747137249180091
],
[
0.02892909656715328
],
[
0.030440641284251297
],
[
0.03200449234065786
],
[
0.033618795335180376
],
[
0.03528135629881559
],
[
0.03698964489114104
],
[
0.03874080021117963
],
[
0.040531639135645794
],
[
0.04235866706153247
],
[
0.04421809090199251
],
[
0.04610583416806356
],
[
0.048017553962156366
],
[
0.04994865970810009
],
[
0.05189433344358572
],
[
0.0538495515031508
],
[
0.05580910742451926
],
[
0.05776763591941521
],
[
0.05971963776136718
],
[
0.061659505455478575
],
[
0.06358154956723584
],
[
0.0654800255989772
],
[
0.06734916131301634
],
[
0.06918318440686338
],
[
0.070976350444267
],
[
0.07272297093292907
],
[
0.07441744141671602
],
[
0.07605426942228888
],
[
0.07762810207437018
],
[
0.07913375317583721
],
[
0.08056622954049604
],
[
0.08192075636709537
],
[
0.08319280145132002
],
[
0.08437809804602471
],
[
0.0854726661950721
],
[
0.08647283237720306
],
[
0.08737524729810738
],
[
0.08817690166058884
],
[
0.08887513973098315
],
[
0.08946767051572414
],
[
0.08995257637376987
],
[
0.09032831892038656
],
[
0.09059374212163647
],
[
0.0907480725306874
],
[
0.09079091667082216
],
[
0.09072225562098045
],
[
0.09054243690500666
],
[
0.0902521638248658
],
[
0.08985248241108955
],
[
0.08934476619059602
],
[
0.08873069899341667
],
[
0.088012256037658
],
[
0.08719168354794696
],
[
0.08627147717672017
],
[
0.08525435950904188
],
[
0.08414325693960943
],
[
0.08294127621522436
],
[
0.08165168093671704
],
[
0.0802778683092079
],
[
0.07882334641636407
],
[
0.07729171227249676
],
[
0.07568663087857838
],
[
0.0740118154790429
],
[
0.07227100918897053
],
[
0.07046796813569166
],
[
0.06860644623085982
],
[
0.06669018165345744
],
[
0.06472288507890424
],
[
0.06270822963796703
],
[
0.06064984253922935
],
[
0.058551298247247925
],
[
0.05641611307658318
],
[
0.054247741036345415
],
[
0.05204957073789257
],
[
0.049824923161389596
],
[
0.047577050070232794
],
[
0.04530913287094959
],
[
0.04302428174250975
],
[
0.040725534901373324
],
[
0.03841585791943715
],
[
0.03609814305815147
],
[
0.033775208611392986
],
[
0.03144979825894249
],
[
0.029124580426911753
],
[
0.026802147638448792
],
[
0.024485015822979506
],
[
0.02217562354022397
],
[
0.01987633107193104
],
[
0.01758941934286119
],
[
0.015317088650598183
],
[
0.013061457204869795
],
[
0.010824559494699838
],
[
0.008608344511062939
],
[
0.006414673850999708
],
[
0.0042453197172652125
],
[
0.002101962811138372
],
[
-1.3809896874809035e-05
],
[
-0.002100507536400763
],
[
-0.004156737854372584
],
[
-0.006181209866196775
],
[
-0.008172736598569345
],
[
-0.010130237851184623
],
[
-0.012052742875799698
],
[
-0.013939392845529254
],
[
-0.015789442966100648
],
[
-0.017602264066477438
],
[
-0.019377343501381324
],
[
-0.021114285204221303
],
[
-0.022812808746257934
],
[
-0.024472747286266236
],
[
-0.026094044332141075
],
[
-0.02767674927713072
],
[
-0.02922101171472819
],
[
-0.03072707457668318
],
[
-0.032195266178073834
],
[
-0.03362599129030065
],
[
-0.03501972139549709
],
[
-0.03637698430481751
],
[
-0.03769835334986404
],
[
-0.03898443638008305
],
[
-0.04023586481566998
],
[
-0.04145328301174641
],
[
-0.0426373381829155
],
[
-0.043788671117185915
],
[
-0.0449079078768555
],
[
-0.04599565264462246
],
[
-0.04705248182747577
],
[
-0.048078939479368345
],
[
-0.049075534049749805
],
[
-0.05004273641511848
],
[
-0.050980979109539803
],
[
-0.05189065663816938
],
[
-0.05277212673435345
],
[
-0.05362571240597616
],
[
-0.05445170461072152
],
[
-0.05525036540251029
],
[
-0.056021931402216146
],
[
-0.0567666174644803
],
[
-0.05748462043729198
],
[
-0.058176122937785665
],
[
-0.058841297090607904
],
[
-0.05948030818972055
],
[
-0.060093318250205106
],
[
-0.06068048941713262
],
[
-0.06124198719893152
],
[
-0.0617779834966512
],
[
-0.06228865940912671
],
[
-0.06277420780569962
],
[
-0.0632348356692786
],
[
-0.06367076621866172
],
[
-0.06408224081650128
],
[
-0.06446952065727918
],
[
-0.06483288821143994
],
[
-0.06517264838329774
],
[
-0.06548912932639535
],
[
-0.06578268285196125
],
[
-0.06605368436290644
],
[
-0.06630253224689897
],
[
-0.06652964666825201
],
[
-0.06673546771037125
],
[
-0.06692045283820203
],
[
-0.06708507367303097
],
[
-0.06722981209992888
],
[
-0.06735515576150711
],
[
-0.06746159303131127
],
[
-0.06754960760552492
],
[
-0.0676196728986331
],
[
-0.06767224646972408
],
[
-0.06770776473280962
],
[
-0.0677266382115258
],
[
-0.0677292475859169
],
[
-0.06771594075133777
],
[
-0.06768703107214652
],
[
-0.06764279696891333
],
[
-0.06758348292869557
],
[
-0.06750930197451502
],
[
-0.06742043957337249
],
[
-0.06731705890287991
],
[
-0.06719930733717361
],
[
-0.06706732395720454
],
[
-0.0669212478425953
],
[
-0.06676122686388403
],
[
-0.06658742666632025
],
[
-0.06640003952240234
],
[
-0.06619929273449944
],
[
-0.06598545629357735
],
[
-0.06575884954277093
],
[
-0.06551984664891934
],
[
-0.06526888074377761
],
[
-0.06500644665264377
],
[
-0.0647331021763409
],
[
-0.06444946793094682
],
[
-0.06415622578027583
],
[
-0.0638541159217904
],
[
-0.06354393270840052
],
[
-0.06322651930663448
],
[
-0.0629027613075385
],
[
-0.06257357942307414
],
[
-0.06223992141886852
],
[
-0.06190275345171036
],
[
-0.061563050992134265
],
[
-0.06122178951308644
],
[
-0.06087993511133499
],
[
-0.06053843520004892
],
[
-0.060198209375911804
],
[
-0.05986014053237575
],
[
-0.05952506626904269
],
[
-0.05919377063585847
],
[
-0.05886697624650615
],
[
-0.05854533679655821
],
[
-0.0582294300297428
],
[
-0.05791975121036844
],
[
-0.05761670717831723
],
[
-0.05732061107988015
],
[
-0.057031677879233966
],
[
-0.056750020760917876
],
[
-0.05647564853561162
],
[
-0.05620846416295255
],
[
-0.055948264506151306
],
[
-0.055694741428561116
],
[
-0.05544748432418681
],
[
-0.05520598413782035
],
[
-0.05496963887891393
],
[
-0.054737760575337496
],
[
-0.054509583558905735
],
[
-0.054284273931276224
],
[
-0.054060940029756234
],
[
-0.05383864369771155
],
[
-0.05361641216202412
],
[
-0.053393250328115364
],
[
-0.05316815331759149
],
[
-0.05294011908837171
],
[
-0.05270816098610978
],
[
-0.05247132007686705
],
[
-0.05222867710767586
],
[
-0.05197936393965689
],
[
-0.05172257430199602
],
[
-0.05145757372457004
],
[
-0.051183708519126195
],
[
-0.050900413690293876
],
[
-0.050607219667223154
],
[
-0.05030375775474381
],
[
-0.049989764210424566
],
[
-0.04966508286300446
],
[
-0.04932966620248327
],
[
-0.04898357489562197
],
[
-0.048626975711015395
],
[
-0.04826013787037256
],
[
-0.04788342787465479
],
[
-0.04749730288781282
],
[
-0.047102302799985674
],
[
-0.04669904113315671
],
[
-0.04628819498727731
],
[
-0.04587049424766478
],
[
-0.045446710285200816
],
[
-0.04501764438340559
],
[
-0.04458411612398776
],
[
-0.04414695195529834
],
[
-0.04370697415469815
],
[
-0.04326499037545973
],
[
-0.042821783943836546
],
[
-0.04237810504734273
],
[
-0.041934662935513685
],
[
-0.04149211923991763
],
[
-0.04105108250644171
],
[
-0.04061210401301881
],
[
-0.04017567491593042
],
[
-0.03974222472972568
],
[
-0.03931212110573267
],
[
-0.03888567083674259
],
[
-0.038463121981527355
],
[
-0.038044666972186406
],
[
-0.03763044654190309
],
[
-0.037220554293575014
],
[
-0.036815041721308416
],
[
-0.036413923493921176
],
[
-0.03601718280969959
],
[
-0.03562477663563529
],
[
-0.03523664065592381
],
[
-0.034852693776664105
],
[
-0.03447284206643113
],
[
-0.03409698205257963
],
[
-0.03372500333576474
],
[
-0.03335679052467803
],
[
-0.03299222452501659
],
[
-0.03263118323985802
],
[
-0.03227354175486818
],
[
-0.03191917209444172
],
[
-0.0315679426460539
],
[
-0.03121971735964211
],
[
-0.03087435483548932
],
[
-0.03053170741714931
],
[
-0.03019162040545822
],
[
-0.029853931505125966
],
[
-0.02951847060530474
],
[
-0.029185059978445838
],
[
-0.028853514957148108
],
[
-0.02852364511702096
],
[
-0.028195255957080053
],
[
-0.02786815103315897
],
[
-0.027542134471473165
],
[
-0.027217013774041416
],
[
-0.02689260282495765
],
[
-0.026568725011014663
],
[
-0.026245216374668312
],
[
-0.025921928716969383
],
[
-0.02559873256217556
],
[
-0.025275519886288185
],
[
-0.024952206501608124
],
[
-0.024628733982768703
],
[
-0.024305071022695454
],
[
-0.023981214124429228
],
[
-0.023657187566128793
],
[
-0.023333042616278388
],
[
-0.02300885601762646
],
[
-0.02268472779640208
],
[
-0.02236077848410352
],
[
-0.022037145860382232
],
[
-0.021713981335603226
],
[
-0.02139144608829291
],
[
-0.02106970705518778
],
[
-0.020748932845298846
],
[
-0.020429289625742076
],
[
-0.020110937017170153
],
[
-0.019794024044806728
],
[
-0.01947868521404708
],
[
-0.01916503680940861
],
[
-0.018853173542360525
],
[
-0.018543165687323455
],
[
-0.01823505683890112
],
[
-0.017928862396337883
],
[
-0.01762456883987608
],
[
-0.01732213381956787
],
[
-0.017021487040587955
],
[
-0.016722531904595463
],
[
-0.016425147852840466
],
[
-0.016129193349930477
],
[
-0.01583450944348563
],
[
-0.015540923830079644
],
[
-0.015248255348936536
],
[
-0.014956318811581644
],
[
-0.014664930059091558
],
[
-0.014373911119671574
],
[
-0.014083095320189467
],
[
-0.013792332191006269
],
[
-0.013501492000589534
],
[
-0.013210469770237295
],
[
-0.012919188650660255
],
[
-0.012627602586246858
],
[
-0.01233569824046621
],
[
-0.012043496197316348
],
[
-0.011751051482078025
],
[
-0.011458453458327647
],
[
-0.011165825161501362
],
[
-0.010873322129387426
],
[
-0.010581130791709976
],
[
-0.010289466484996443
],
[
-0.009998571163282299
],
[
-0.009708710877926827
],
[
-0.00942017309886733
],
[
-0.009133263943040678
],
[
-0.008848305363460688
],
[
-0.008565632337270907
],
[
-0.008285590076000804
],
[
-0.008008531267553949
],
[
-0.00773481334781278
],
[
-0.007464795791538812
],
[
-0.00719883740889984
],
[
-0.006937293635694667
],
[
-0.006680513810877211
],
[
-0.00642883844209585
],
[
-0.0061825964671053816
],
[
-0.005942102526122592
],
[
-0.005707654267572204
],
[
-0.00547952971550808
],
[
-0.005257984729055466
],
[
-0.005043250582653695
],
[
-0.004835531693936786
],
[
-0.004635003527624286
],
[
-0.004441810709690899
],
[
-0.004256065392589721
],
[
-0.0040778459129791325
],
[
-0.0039071957733638
],
[
-0.0037441229581041094
],
[
-0.0035885995668503015
],
[
-0.00344056172154582
],
[
-0.0032999096835301285
],
[
-0.0031665081097655232
],
[
-0.0030401863835927403
],
[
-0.0029207389738663534
],
[
-0.002807925801299197
],
[
-0.002701472614643034
],
[
-0.0026010713958251903
],
[
-0.0025063808211517047
],
[
-0.0024170268084983365
],
[
-0.0023326031825887613
],
[
-0.002252672495047955
],
[
-0.0021767670433105067
],
[
-0.0021043901403767075
],
[
-0.0020350176925952946
],
[
-0.0019681001436337095
],
[
-0.001903064840906047
],
[
-0.0018393188785234436
],
[
-0.001776252469755715
],
[
-0.0017132429009777423
],
[
-0.0016496591143032242
],
[
-0.0015848669519164613
],
[
-0.0015182350666050372
],
[
-0.0014491414599834334
],
[
-0.001376980558907949
],
[
-0.001301170692021555
],
[
-0.0012211617909980497
],
[
-0.0011364431187379925
],
[
-0.001046550819201133
],
[
-0.0009510750888645537
],
[
-0.0008496667859792136
],
[
-0.0007420433182913721
],
[
-0.0006279936790358819
],
[
-0.0005073825305984703
],
[
-0.0003801532612741223
],
[
-0.00024632995996076273
],
[
-0.00010601826597759103
],
[
4.0594940076684226e-05
],
[
0.00019324302800404944
],
[
0.000351582300614903
],
[
0.0005151958572770515
],
[
0.0006835986092161517
],
[
0.0008562433960529511
],
[
0.0010325281251980826
],
[
0.0012118038186821449
],
[
0.0013933834086132673
],
[
0.0015765510805742053
],
[
0.001760571933481041
],
[
0.0019447017121229499
],
[
0.0021281963775860255
],
[
0.0023103213096350352
],
[
0.0024903599793316684
],
[
0.0026676219816911665
],
[
0.002841450366668216
],
[
0.0030112282439228736
],
[
0.0031763846600854568
],
[
0.0033363997591591295
],
[
0.003490809241569331
],
[
0.003639208138118979
],
[
0.003781253911957615
],
[
0.003916668893468187
],
[
0.004045242040398774
],
[
0.004166830003260715
],
[
0.004281357471309026
],
[
0.0043888167830156925
],
[
0.004489266806398564
],
[
0.004582831121403542
],
[
0.004669695558449898
],
[
0.004750105157237409
],
[
0.0048243606070827935
],
[
0.004892814217365365
],
[
0.004955865447850537
],
[
0.0050139560084498346
],
[
0.0050675645234033945
],
[
0.005117200753112891
],
[
0.005163399380485684
],
[
0.005206713393580952
],
[
0.005247707124674237
],
[
0.005286949030474612
],
[
0.005325004315091324
],
[
0.005362427505292627
],
[
0.005399755088219933
],
[
0.005437498319142098
],
[
0.005476136305475331
],
[
0.00551610947491687
],
[
0.005557813538879406
],
[
0.005601594065286983
],
[
0.005647741775980225
],
[
0.0056964886831533945
],
[
0.005748005175000577
],
[
0.005802398148900204
],
[
0.005859710266082218
],
[
0.005919920364283054
],
[
0.005982945020762218
],
[
0.006048641216858955
],
[
0.00611681002412588
],
[
0.0061872012130169286
],
[
0.006259518676299473
],
[
0.006333426557480976
],
[
0.006408555976120978
],
[
0.006484512243586961
],
[
0.0065608824618039055
],
[
0.0066372433924524795
],
[
0.006713169475142139
],
[
0.006788240861782871
],
[
0.006862051323130282
],
[
0.0069342158753510595
],
[
0.007004377971983991
],
[
0.007072216110729685
],
[
0.007137449715001613
],
[
0.007199844167870512
],
[
0.0072592149024920975
],
[
0.007315430488291345
],
[
0.0073684146926459694
],
[
0.007418147537586372
],
[
0.007464665404148044
],
[
0.007508060259345268
],
[
0.00754847809001347
],
[
0.007586116623519909
],
[
0.007621222400134537
],
[
0.007654087241745832
],
[
0.007685044143840947
],
[
0.007714462607882337
],
[
0.007742743432665788
],
[
0.007770312996649529
],
[
0.00779761708585102
],
[
0.007825114347477898
],
[
0.007853269470497472
],
[
0.007882546205541104
],
[
0.0079134003370902
],
[
0.00794627271394155
],
[
0.007981582433688362
],
[
0.008019720266444057
],
[
0.00806104239461002
],
[
0.008105864541723648
],
[
0.008154456565961173
],
[
0.00820703760099752
],
[
0.008263771833657233
],
[
0.008324765009473649
],
[
0.008390061752842322
],
[
0.008459643779837432
],
[
0.00853342907097082
],
[
0.008611272058365767
],
[
0.008692964864961317
],
[
0.008778239609157898
],
[
0.008866771754656163
],
[
0.00895818444411739
],
[
0.009052053713343269
],
[
0.009147914448699484
],
[
0.009245266931752356
],
[
0.009343583814500999
],
[
0.009442317383327741
],
[
0.009540906992124258
],
[
0.009638786566158969
],
[
0.009735392092279508
],
[
0.00983016901603329
],
[
0.009922579462460496
],
[
0.010012109185992492
],
[
0.01009827413926202
],
[
0.010180626536228086
],
[
0.010258760278139805
],
[
0.010332315616231009
],
[
0.010400982944507971
],
[
0.010464505647932306
],
[
0.010522681970212118
],
[
0.010575365903555747
],
[
0.010622467133693685
],
[
0.010663950094107508
],
[
0.010699832193156213
],
[
0.010730181278333164
],
[
0.010755112397977004
],
[
0.010774783919258913
],
[
0.010789393067654182
],
[
0.010799170968571758
],
[
0.010804377293181974
],
[
0.010805294632036779
],
[
0.010802222735597554
],
[
0.010795472765337582
],
[
0.010785361690817116
],
[
0.010772206949532194
],
[
0.010756321463814309
],
[
0.010738009089882657
],
[
0.010717560561996013
],
[
0.010695249987588756
],
[
0.01067133194240105
],
[
0.010646039204238088
],
[
0.01061958114958673
],
[
0.010592142820678703
],
[
0.010563884653773815
],
[
0.010534942843596825
],
[
0.010505430304966232
],
[
0.010475438182219961
],
[
0.01044503785087897
],
[
0.010414283352424576
],
[
0.010383214198789903
],
[
0.010351858476502551
],
[
0.010320236173055233
],
[
0.010288362642945892
],
[
0.010256252128937994
],
[
0.0102239212543427
],
[
0.010191392403423902
],
[
0.010158696909483449
],
[
0.010125877974306663
],
[
0.010092993248131198
],
[
0.010060117005131921
],
[
0.010027341855467206
],
[
0.009994779942901894
],
[
0.009962563588659431
],
[
0.009930845356830397
],
[
0.009899797532086045
],
[
0.009869611015381464
],
[
0.009840493657500332
],
[
0.009812668062088333
],
[
0.009786368897572418
],
[
0.009761839763547669
],
[
0.009739329668308564
],
[
0.009719089194320595
],
[
0.009701366453809772
],
[
0.009686402957250205
],
[
0.009674429524295978
],
[
0.009665662357885237
],
[
0.009660299383575648
],
[
0.00965851693547784
],
[
0.009660466851631683
],
[
0.0096662740245736
],
[
0.009676034434655017
],
[
0.009689813673731661
],
[
0.009707645947008446
],
[
0.009729533523676332
],
[
0.00975544659478724
],
[
0.009785323492708204
],
[
0.009819071234656444
],
[
0.009856566374188377
],
[
0.009897656171686081
],
[
0.009942160114204032
],
[
0.009989871816040188
],
[
0.010040561313242841
],
[
0.01009397773391738
],
[
0.01014985228863892
],
[
0.01020790148845313
],
[
0.010267830469817898
],
[
0.010329336293095692
],
[
0.010392111085945153
],
[
0.010455844922993318
],
[
0.010520228364460373
],
[
0.010584954613791525
],
[
0.010649721291314165
],
[
0.010714231851064016
],
[
0.010778196686946288
],
[
0.01084133398055901
],
[
0.010903370336439535
],
[
0.010964041233251866
],
[
0.011023091295788339
],
[
0.011080274369240285
],
[
0.011135353362484664
],
[
0.011188099829013184
],
[
0.0112382932760738
],
[
0.011285720231337757
],
[
0.011330173142123244
],
[
0.011371449221351977
],
[
0.011409349375271438
],
[
0.01144367734588492
],
[
0.01147423917936524
],
[
0.011500843098851372
],
[
0.011523299825139874
],
[
0.011541423358502187
],
[
0.011555032211332484
],
[
0.0115639510623953
],
[
0.011568012785024779
],
[
0.011567060781520647
],
[
0.011560951536324466
],
[
0.011549557286453334
],
[
0.011532768703376009
],
[
0.011510497487362558
],
[
0.011482678792162308
],
[
0.011449273420826163
],
[
0.01141026975529853
],
[
0.011365685395309738
],
[
0.011315568484019501
],
[
0.011259998694172109
],
[
0.011199087846557638
],
[
0.01113298013558954
],
[
0.011061851943929455
],
[
0.010985911238290439
],
[
0.010905396552808031
],
[
0.010820575585789066
],
[
0.010731743458572895
],
[
0.010639220706891593
],
[
0.010543351089541938
],
[
0.010444499301245512
],
[
0.010343048663636749
],
[
0.010239398842203727
],
[
0.010133963604678288
],
[
0.010027168606909815
],
[
0.009919449171625306
],
[
0.009811248014546919
],
[
0.009703012869869592
],
[
0.009595193972612576
],
[
0.009488241368099204
],
[
0.009382602035616066
],
[
0.009278716829222301
],
[
0.009177017250494992
],
[
0.009077922077233144
],
[
0.008981833884052354
],
[
0.00888913550930245
],
[
0.008800186546327035
],
[
0.008715319959276881
],
[
0.00863483893621196
],
[
0.008559014088883514
],
[
0.00848808108904332
],
[
0.008422238801659203
],
[
0.00836164794501383
],
[
0.00830643028294335
],
[
0.00825666833733082
],
[
0.008212405597411342
],
[
0.008173647193003945
],
[
0.00814036098890835
],
[
0.008112479047278161
],
[
0.008089899396381281
],
[
0.00807248804151099
],
[
0.008060081159165738
],
[
0.008052487428251367
],
[
0.008049490468817873
],
[
0.008050851375171366
],
[
0.008056311340729379
],
[
0.008065594371866285
],
[
0.00807841007583345
],
[
0.00809445648798223
],
[
0.008113422884657258
],
[
0.00813499251881968
],
[
0.008158845220219415
],
[
0.008184659819978657
],
[
0.008212116385533267
],
[
0.008240898278372575
],
[
0.008270694066345053
],
[
0.008301199329186302
],
[
0.00833211838985426
],
[
0.008363165990580923
],
[
0.00839406891899847
],
[
0.008424567580206349
],
[
0.008454417503593213
],
[
0.008483390765715566
],
[
0.008511277302610152
],
[
0.008537886078923047
],
[
0.008563046078230477
],
[
0.008586607077396384
],
[
0.00860844016677177
],
[
0.008628437980378356
],
[
0.008646514610871644
],
[
0.008662605203972199
],
[
0.008676665249997741
],
[
0.008688669606902106
],
[
0.00869861129447639
],
[
0.008706500094208569
],
[
0.008712360978479734
],
[
0.008716232380900553
],
[
0.008718164309803003
],
[
0.008718216301656177
],
[
0.008716455213146712
],
[
0.008712952861950904
],
[
0.00870778354593941
],
[
0.008701021493762347
],
[
0.008692738319513922
],
[
0.008683000564635083
],
[
0.008671867408967958
],
[
0.008659388621962619
],
[
0.008645602809867352
],
[
0.008630536001163496
],
[
0.008614200603841032
],
[
0.00859659476348592
],
[
0.008577702146098131
],
[
0.008557492158810801
],
[
0.008535920602804005
],
[
0.008512930728521073
],
[
0.008488454641108834
],
[
0.008462414991476683
],
[
0.008434726888792972
],
[
0.008405299980485904
],
[
0.008374040658323905
],
[
0.008340854356997626
],
[
0.008305647913221963
],
[
0.008268331952869318
],
[
0.008228823276914373
],
[
0.008187047226891129
],
[
0.008142940025333638
],
[
0.008096451101428643
],
[
0.008047545420837262
],
[
0.007996205835178662
],
[
0.007942435447048202
],
[
0.007886259952712226
],
[
0.007827729885817267
],
[
0.007766922653442219
],
[
0.007703944239386017
],
[
0.007638930451263915
],
[
0.00757204760491824
],
[
0.0075034925663988936
],
[
0.007433492102785801
],
[
0.007362301524044334
],
[
0.0072902026261208825
],
[
0.0072175009688758346
],
[
0.007144522539794738
],
[
0.0070716098646475085
],
[
0.006999117629766091
],
[
0.006927407880372433
],
[
0.0068568448606939015
],
[
0.006787789569512894
],
[
0.0067205941209909715
],
[
0.006655596022426441
],
[
0.006593112503069687
],
[
0.006533435046475844
],
[
0.00647682428915822
],
[
0.006423505446912693
],
[
0.006373664414846706
],
[
0.006327444658999863
],
[
0.006284944981554603
],
[
0.006246218204703436
],
[
0.006211270784928523
],
[
0.006180063340581665
],
[
0.00615251204992525
],
[
0.006128490853874038
],
[
0.006107834379256192
],
[
0.006090341486540969
],
[
0.006075779340867723
],
[
0.006063887904751917
],
[
0.00605438475185573
],
[
0.006046970100744578
],
[
0.006041331963883315
],
[
0.006037151300912652
],
[
0.006034107059885916
],
[
0.006031880990626581
],
[
0.006030162125548802
],
[
0.006028650847629602
],
[
0.0060270624998022895
],
[
0.0060251305258528925
],
[
0.006022609159149799
],
[
0.006019275685581299
],
[
0.006014932300586054
],
[
0.006009407561421112
],
[
0.006002557412167193
],
[
0.0059942657399882785
],
[
0.005984444415705529
],
[
0.005973032783768339
],
[
0.0059599965940576125
],
[
0.005945326404973821
],
[
0.005929035527362604
],
[
0.005911157614942623
],
[
0.005891744031897146
],
[
0.005870861137163905
],
[
0.005848587616518473
],
[
0.005825011969801747
],
[
0.005800230225733001
],
[
0.005774343916716929
],
[
0.005747458307621306
],
[
0.005719680840776543
],
[
0.0056911197372866784
],
[
0.005661882684026331
],
[
0.005632075537780184
],
[
0.005601800992956442
],
[
0.005571157185848596
],
[
0.005540236243412917
],
[
0.005509122821470816
],
[
0.0054778927065774734
],
[
0.005446611569846185
],
[
0.00541533395903211
],
[
0.0053841026020505275
],
[
0.0053529480755522265
],
[
0.005321888867817668
],
[
0.005290931837085507
],
[
0.005260073038788697
],
[
0.005229298875670261
],
[
0.005198587519571075
],
[
0.005167910562631209
],
[
0.005137234872607864
],
[
0.005106524644209571
],
[
0.005075743648926178
],
[
0.005044857684295399
],
[
0.00501383720737387
],
[
0.00498266010918177
],
[
0.004951314554215772
],
[
0.004919801778962289
],
[
0.004888138720519827
],
[
0.004856360335274213
],
[
0.004824521473216118
],
[
0.00479269819837922
],
[
0.0047609884847437415
],
[
0.0047295122577014105
],
[
0.004698410782609785
],
[
0.004667845420761237
],
[
0.004637995783352818
],
[
0.004609057321482472
],
[
0.004581238398048922
],
[
0.004554756896874885
],
[
0.004529836435895812
],
[
0.004506702263676992
],
[
0.0044855769286017795
],
[
0.004466675815935642
],
[
0.004450202651682438
],
[
0.004436345076332026
],
[
0.004425270394696982
],
[
0.004417121605362042
],
[
0.004412013801794509
],
[
0.00441003101759398
],
[
0.004411223563738327
],
[
0.004415605879400184
],
[
0.004423154892046957
],
[
0.004433808857672351
],
[
0.004447466630035083
],
[
0.004463987294721587
],
[
0.0044831901071742
],
[
0.00450485469572032
],
[
0.004528721525688997
],
[
0.004554492661177874
],
[
0.004581832901586455
],
[
0.0046103714051305795
],
[
0.004639703932098383
],
[
0.004669395838011901
],
[
0.00469898591983127
],
[
0.004727991173249817
],
[
0.004755912465134636
],
[
0.004782241070456577
],
[
0.004806465973545706
],
[
0.004828081792457092
],
[
0.004846597153188787
],
[
0.004861543315896643
],
[
0.004872482836363979
],
[
0.0048790180333114185
],
[
0.004880799028199471
],
[
0.004877531130204704
],
[
0.004868981352803523
],
[
0.004854983866265243
],
[
0.004835444210671781
],
[
0.004810342117461654
],
[
0.004779732815081401
],
[
0.004743746727317471
],
[
0.00470258751346315
],
[
0.004656528449978652
],
[
0.004605907212451746
],
[
0.004551119177379437
],
[
0.0044926094165642656
],
[
0.00443086359845051
],
[
0.004366398043175354
],
[
0.004299749207276937
],
[
0.004231462902419152
],
[
0.004162083575481105
],
[
0.0040921439859097734
],
[
0.0040221556048436165
],
[
0.003952600031215147
],
[
0.003883921678334021
],
[
0.0038165219333575885
],
[
0.0037507549312808318
],
[
0.003686925014393833
],
[
0.0036252858703313185
],
[
0.003566041263145457
],
[
0.0035093472004807235
],
[
0.003455315323394276
],
[
0.0034040172681755604
],
[
0.0033554897326827735
],
[
0.003309739981152608
],
[
0.0032667515364174257
],
[
0.0032264898311497475
],
[
0.0031889076167699367
],
[
0.0031539499605282573
],
[
0.003121558698221908
],
[
0.0030916762475146553
],
[
0.0030642487180802176
],
[
0.0030392282767142246
],
[
0.003016574740331883
],
[
0.0029962563811985437
],
[
0.0029782499398735363
],
[
0.002962539856032467
],
[
0.0029491167508319096
],
[
0.0029379752295670587
],
[
0.0029291111163062275
],
[
0.0029225182738160096
],
[
0.002918185192581957
],
[
0.0029160915450871443
],
[
0.0029162048923586383
],
[
0.0029184776994424333
],
[
0.0029228447697380896
],
[
0.00292922115448093
],
[
0.002937500545034674
],
[
0.002947554122830572
],
[
0.0029592298307924317
],
[
0.0029723520390171503
],
[
0.0029867215959828546
],
[
0.0030021162714359852
],
[
0.0030182916010680736
],
[
0.0030349821376479294
],
[
0.003051714850674477
],
[
0.0030679953064225527
],
[
0.0030835006588492927
],
[
0.0030978965888846634
],
[
0.0031108407133242084
],
[
0.003121986226054313
],
[
0.0031309857149934253
],
[
0.0031374951005343835
],
[
0.0031411776420362573
],
[
0.0031417079566445237
],
[
0.0031387759893875466
],
[
0.0031320908668345626
],
[
0.0031213845621375614
],
[
0.003106415300637788
],
[
0.0030869706445583304
],
[
0.003062870213022909
],
[
0.0030339680172503042
],
[
0.0030001544137127395
],
[
0.002961357692364448
],
[
0.002917545319029143
],
[
0.00286872484364312
],
[
0.0028149444755482516
],
[
0.0027562933177496143
],
[
0.002692901244590169
],
[
0.002624938400939576
],
[
0.002552614296498227
],
[
0.002476176467975878
],
[
0.0023959086848926044
],
[
0.0023121286794614156
],
[
0.0022251853863875194
],
[
0.002135455687573234
],
[
0.0020433406745588756
],
[
0.0019492614687191443
],
[
0.0018536546695464766
],
[
0.0017569675254395405
],
[
0.0016596529328956648
],
[
0.001562164368720748
],
[
0.0014649508510761083
],
[
0.0013684520162412443
],
[
0.0012730933945140682
],
[
0.0011792819719922917
],
[
0.0010874021317299665
],
[
0.0009978120720552093
],
[
0.0009108407967499897
],
[
0.0008267857598191523
],
[
0.0007459112283409861
],
[
0.0006684474033199113
],
[
0.0005945903132191674
],
[
0.0005245024697345803
],
[
0.00045831425150744435
],
[
0.00039612595931284714
],
[
0.0003380104647510876
],
[
0.0002840163513627284
],
[
0.0002341714216440898
],
[
0.00018848641868773178
],
[
0.00014695879260578343
],
[
0.00010957633417071098
],
[
7.632050314585765e-05
],
[
4.7169295951815153e-05
],
[
2.209952447952486e-05
],
[
1.0884124211216779e-06
],
[
-1.5885544965254948e-05
],
[
-2.8842469883121398e-05
],
[
-3.7801711638788845e-05
],
[
-4.2783113931357465e-05
],
[
-4.380885001625289e-05
],
[
-4.090571634921528e-05
],
[
-3.4107760462388614e-05
],
[
-2.345910820351783e-05
],
[
-9.016852507635472e-06
],
[
9.146124836444386e-06
],
[
3.093850533456566e-05
],
[
5.624813971448119e-05
],
[
8.493996530867073e-05
],
[
0.00011685428238370579
],
[
0.00015180543871642324
],
[
0.00018958097915505563
],
[
0.00022994132108351215
],
[
0.0002726200106212921
],
[
0.00031732459624707267
],
[
0.000363738130070998
],
[
0.00041152127855754447
],
[
0.0004603149997673138
],
[
0.0005097437261817757
],
[
0.0005594189806937427
],
[
0.0006089433460778858
],
[
0.0006579147033615502
],
[
0.0007059306519382211
],
[
0.0007525930245546463
],
[
0.0007975124133248789
],
[
0.0008403126283343089
],
[
0.0008806350182709515
],
[
0.0009181425923634136
],
[
0.0009525238925612184
],
[
0.0009834965716506647
],
[
0.0010108106358090265
],
[
0.001034251310239315
],
[
0.0010536414865190752
],
[
0.0010688437125563803
],
[
0.0010797616915494848
],
[
0.0010863412637156238
],
[
0.0010885708510437813
],
[
0.0010864813493682605
],
[
0.0010801454548358756
],
[
0.0010696764163790065
],
[
0.0010552262146649527
],
[
0.001036983181684725
],
[
0.001015169092318861
],
[
0.0009900357775936934
],
[
0.0009618613263751598
],
[
0.0009309459557163107
],
[
0.0008976076387758569
],
[
0.0008621775831454782
],
[
0.0008249956523098353
],
[
0.0007864058199776108
],
[
0.0007467517423019983
],
[
0.0007063725267861778
],
[
0.0006655987680733299
],
[
0.0006247489091698783
],
[
0.0005841259727948203
],
[
0.0005440146935820099
],
[
0.0005046790696613415
],
[
0.00046636034236270836
],
[
0.000429275404927916
],
[
0.0003936156342285914
],
[
0.0003595461330044199
],
[
0.00032720536426287085
],
[
0.0002967051547056313
],
[
0.00026813104047358283
],
[
0.0002415429259499499
],
[
0.00021697602478920367
],
[
0.00019444205183407956
],
[
0.00017393063507672733
],
[
0.000155410917916546
],
[
0.0001388333229938439
],
[
0.00012413144923101714
],
[
0.00011122407310883839
],
[
0.00010001722351598925
],
[
9.040629681910436e-05
],
[
8.227817603040294e-05
],
[
7.551331697370476e-05
],
[
6.998776680352373e-05
],
[
6.557508610945084e-05
],
[
6.214815344581405e-05
],
[
5.95808383008125e-05
],
[
5.774953375500849e-05
],
[
5.653454295239962e-05
],
[
5.5821314575170085e-05
],
[
5.550152277238317e-05
],
[
5.5473987254161115e-05
],
[
5.564543003065429e-05
],
[
5.5931066917737224e-05
],
[
5.625503454842667e-05
],
[
5.65506568588529e-05
],
[
5.676055827814864e-05
],
[
5.6836633685994875e-05
],
[
5.673988729606502e-05
],
[
5.644015379626168e-05
],
[
5.591571546185149e-05
],
[
5.515282899434554e-05
],
[
5.414517592585124e-05
],
[
5.289325065523421e-05
],
[
5.1403700320318564e-05
],
[
4.968863034729505e-05
],
[
4.776488833848684e-05
],
[
4.5653337052777166e-05
],
[
4.337812510961548e-05
],
[
4.096596233250354e-05
],
[
3.8445405767435245e-05
],
[
3.584616243588381e-05
],
[
3.3198415509502215e-05
],
[
3.0532181315567824e-05
],
[
2.787670497788677e-05
],
[
2.5259902438920697e-05
],
[
2.2707856205911873e-05
],
[
2.0244371552211542e-05
],
[
1.789059910613637e-05
],
[
1.5664728747046318e-05
],
[
1.3581758580545287e-05
],
[
1.1653341670789458e-05
],
[
9.887712283500543e-06
],
[
8.289692524939292e-06
],
[
6.860779164174607e-06
],
[
5.599308846864942e-06
],
[
4.500697797705205e-06
],
[
3.55774962807519e-06
],
[
2.76102227159736e-06
],
[
2.0992425880640125e-06
],
[
1.5597549667104448e-06
],
[
1.1289884609584427e-06
],
[
7.929257447866115e-07
],
[
5.375566364245114e-07
],
[
3.492991882527577e-07
],
[
2.153724356556616e-07
],
[
1.2410682999947175e-07
],
[
6.518112696442029e-08
],
[
2.9778018898513647e-08
],
[
1.065500501336061e-08
],
[
2.131726558461996e-09
],
[
1.0353251279385835e-37
]
]
}